0,1
1,1
2,1
3,1
4,1
5,1
6,1
7,1
8,1
9,1
10,1
11,1
12,1
13,1
14,1
15,1
16,1
17,1
18,1
19,1
20,1
21,1
22,1
23,1
24,1
25,1
26,1
27,1
28,1
29,1
30,1
31,1
32,1
33,1
34,1
35,1
36,1
37,1
38,1
39,1
40,1
41,1
42,1
43,1
44,1
45,1
46,1
47,1
48,1
49,1
50,1
51,1
52,1
53,1
54,1
55,1
56,1
57,1
58,1
59,1
60,1
61,1
62,1
63,1
64,1
65,1
66,1
67,1
68,1
69,1
70,1
71,1
72,1
73,1
74,1
75,1
76,1
77,1
78,1
79,1
80,1
81,1
82,1
83,1
84,1
85,1
86,1
87,1
88,1
89,1
90,1
91,1
92,1
93,1
94,1
95,1
96,1
97,1
98,1
99,1
100,1
101,1
102,1
103,1
104,1
105,1
106,1
107,1
108,1
109,4
110,1
111,1
112,1
113,5
114,5
115,5
116,5
117,1
118,6
119,6
120,6
121,6
122,6
123,6
124,6
125,6
126,6
127,6
128,6
129,6
130,4
131,7
132,1
133,5
134,1
135,1
136,1
137,8
138,8
139,9
140,8
141,8
142,8
143,1
144,8
145,8
146,8
147,4
148,1
149,9
150,9
151,10
152,9
153,1
154,1
155,11
156,11
157,11
158,11
159,11
160,11
161,11
162,11
163,11
164,11
165,1
166,1
167,11
168,11
169,11
170,9
171,8
172,1
173,14
174,13
175,15
176,1
177,20
178,22
179,24
180,1
181,16
182,16
183,16
184,16
185,5
186,5
187,15
188,15
189,15
190,16
191,4
192,16
193,16
194,16
195,12
196,15
197,13
198,17
199,24
200,24
201,17
202,24
203,24
204,5
205,6
206,4
207,16
208,22
209,22
210,16
211,4
212,35
213,5
214,16
215,16
216,28
217,17
218,6
219,1
220,1
221,21
222,21
223,1
224,1
225,1
226,6
227,4
228,29
229,19
230,22
231,22
232,1
233,25
234,21
235,21
236,21
237,26
238,26
239,5
240,26
241,26
242,26
243,35
244,8
245,25
246,36
247,36
248,37
249,9
250,45
251,31
252,29
253,31
254,11
255,33
256,44
257,53
258,13
259,36
260,36
261,36
262,7
263,11
264,25
265,36
266,10
267,15
268,11
269,11
270,13
271,29
272,30
273,40
274,1
275,34
276,1
277,12
278,6
279,12
280,43
281,21
282,1
283,1
284,1
285,4
286,41
287,5
288,17
289,41
290,41
291,50
292,50
293,8
294,22
295,38
296,38
297,42
298,21
299,21
300,46
301,23
302,46
303,21
304,50
305,31
306,11
307,11
308,11
309,49
310,22
311,24
312,1
313,75
314,23
315,22
316,57
317,15
318,29
319,26
320,46
321,6
322,80
323,28
324,58
325,34
326,55
327,66
328,38
329,36
330,39
331,33
332,56
333,36
334,28
335,57
336,50
337,57
338,49
339,38
340,14
341,85
342,64
343,62
344,41
345,1
346,19
347,64
348,36
349,57
350,50
351,67
352,71
353,85
354,43
355,36
356,36
357,58
358,18
359,72
360,95
361,25
362,66
363,51
364,11
365,29
366,78
367,78
368,59
369,50
370,43
371,44
372,66
373,47
374,85
375,65
376,57
377,105
378,35
379,76
380,61
381,39
382,68
383,108
384,51
385,46
386,41
387,21
388,21
389,21
390,48
391,22
392,22
393,22
394,86
395,44
396,21
397,5
398,6
399,21
400,36
401,36
402,65
403,74
404,111
405,36
406,92
407,90
408,77
409,5
410,33
411,34
412,29
413,11
414,116
415,56
416,51
417,26
418,26
419,26
420,10
421,11
422,41
423,95
424,82
425,53
426,61
427,36
428,28
429,119
430,29
431,29
432,29
433,43
434,47
435,10
436,73
437,82
438,39
439,99
440,99
441,122
442,57
443,78
444,31
445,61
446,31
447,16
448,87
449,71
450,96
451,41
452,57
453,126
454,44
455,51
456,83
457,45
458,131
459,66
460,55
461,10
462,66
463,63
464,31
465,36
466,36
467,36
468,106
469,15
470,21
471,50
472,43
473,81
474,90
475,53
476,138
477,46
478,104
479,104
480,92
481,49
482,15
483,94
484,94
485,19
486,15
487,36
488,71
489,26
490,51
491,109
492,109
493,54
494,146
495,16
496,99
497,99
498,87
499,87
500,57
501,86
502,66
503,38
504,76
505,57
506,150
507,23
508,59
509,90
510,69
511,116
512,21
513,154
514,64
515,26
516,34
517,103
518,107
519,74
520,37
521,1
522,41
523,43
524,43
525,126
526,78
527,41
528,31
529,57
530,57
531,94
532,87
533,87
534,98
535,56
536,114
537,104
538,94
539,112
540,117
541,114
542,10
543,104
544,24
545,69
546,31
547,46
548,61
549,109
550,67
551,71
552,71
553,50
554,50
555,94
556,67
557,88
558,106
559,108
560,108
561,42
562,136
563,76
564,19
565,99
566,104
567,123
568,57
569,146
570,48
571,64
572,101
573,77
574,77
575,108
576,115
577,50
578,115
579,98
580,64
581,58
582,151
583,16
584,87
585,87
586,95
587,61
588,71
589,133
590,136
591,29
592,75
593,151
594,78
595,78
596,78
597,64
598,51
599,36
600,108
601,101
602,94
603,108
604,141
605,66
606,121
607,119
608,109
609,114
610,76
611,81
612,122
613,115
614,122
615,56
616,41
617,71
618,126
619,86
620,119
621,119
622,81
623,126
624,86
625,85
626,85
627,71
628,108
629,101
630,115
631,116
632,123
633,121
634,102
635,197
636,201
637,92
638,128
639,116
640,108
641,122
642,130
643,115
644,121
645,99
646,99
647,135
648,115
649,129
650,122
651,140
652,128
653,106
654,106
655,142
656,122
657,136
658,129
659,224
660,113
661,113
662,149
663,135
664,129
665,143
666,150
667,136
668,120
669,120
670,156
671,142
672,136
673,150
674,143
675,61
676,160
677,76
678,1
679,66
680,163
681,127
682,149
683,143
684,157
685,150
686,264
687,134
688,134
689,170
690,156
691,101
692,163
693,171
694,157
695,71
696,123
697,177
698,123
699,141
700,141
701,177
702,163
703,108
704,131
705,76
706,91
707,46
708,113
709,29
710,146
711,315
712,109
713,136
714,86
715,126
716,81
717,96
718,96
719,138
720,184
721,170
722,115
723,141
724,1
725,1
726,1
727,157
728,156
729,86
730,190
731,177
732,122
733,186
734,131
735,91
736,100
737,100
738,51
739,131
740,91
741,105
742,105
743,97
744,56
745,183
746,34
747,107
748,193
749,97
750,197
751,129
752,114
753,110
754,166
755,96
756,190
757,204
758,136
759,312
760,119
761,316
762,128
763,211
764,211
765,197
766,143
767,102
768,61
769,101
770,107
771,137
772,20
773,66
774,39
775,118
776,122
777,218
778,204
779,106
780,110
781,23
782,23
783,128
784,69
785,122
786,24
787,143
788,44
789,26
790,36
791,72
792,111
793,115
794,101
795,126
796,225
797,211
798,29
799,146
800,105
801,97
802,1
803,108
804,79
805,36
806,111
807,86
808,119
809,41
810,116
811,49
812,34
813,89
814,234
815,234
816,218
817,131
818,120
819,149
820,153
821,127
822,96
823,166
824,46
825,54
826,39
827,136
828,315
829,106
830,160
831,140
832,55
833,99
834,51
835,110
836,244
837,112
838,36
839,114
840,64
841,176
842,116
843,1
844,1
845,143
846,117
847,186
848,167
849,6
850,6
851,71
852,254
853,34
854,76
855,130
856,49
857,49
858,66
859,11
860,11
861,11
862,79
863,260
864,174
865,78
866,16
867,16
868,196
869,141
870,122
871,181
872,270
873,90
874,137
875,137
876,39
877,122
878,206
879,140
880,111
881,188
882,260
883,161
884,147
885,216
886,195
887,163
888,135
889,161
890,226
891,202
892,138
893,209
894,148
895,236
896,175
897,197
898,216
899,178
900,246
901,223
902,183
903,183
904,166
905,230
906,256
907,193
908,237
909,203
910,186
911,206
912,115
913,189
914,244
915,214
916,251
917,108
918,258
919,258
920,229
921,273
922,271
923,245
924,248
925,218
926,277
927,200
928,285
929,259
930,94
931,296
932,221
933,280
934,303
935,303
936,85
937,20
938,25
939,25
940,310
941,92
942,30
943,30
944,108
945,304
946,314
947,32
948,307
949,99
950,99
951,56
952,56
953,74
954,35
955,318
956,103
957,37
958,310
959,106
960,63
961,63
962,63
963,63
964,40
965,82
966,108
967,108
968,42
969,325
970,67
971,67
972,318
973,45
974,47
975,47
976,113
977,113
978,332
979,50
980,52
981,52
982,113
983,118
984,118
985,70
986,72
987,70
988,72
989,90
990,339
991,55
992,57
993,57
994,123
995,123
996,77
997,77
998,77
999,120
1000,77
1001,77
1002,98
1003,128
1004,60
1005,62
1006,62
1007,82
1008,82
1009,82
1010,82
1011,82
1012,81
1013,81
1014,65
1015,132
1016,132
1017,86
1018,86
1019,86
1020,127
1021,67
1022,70
1023,127
1024,137
1025,86
1026,87
1027,91
1028,84
1029,86
1030,87
1031,91
1032,91
1033,106
1034,140
1035,140
1036,134
1037,131
1038,72
1039,75
1040,91
1041,92
1042,92
1043,96
1044,91
1045,92
1046,96
1047,96
1048,144
1049,91
1050,114
1051,96
1052,101
1053,80
1054,96
1055,97
1056,96
1057,97
1058,77
1059,77
1060,77
1061,137
1062,137
1063,141
1064,101
1065,85
1066,101
1067,102
1068,98
1069,98
1070,101
1071,102
1072,102
1073,82
1074,82
1075,82
1076,90
1077,148
1078,142
1079,142
1080,106
1081,107
1082,106
1083,105
1084,106
1085,106
1086,106
1087,106
1088,123
1089,123
1090,123
1091,102
1092,93
1093,110
1094,110
1095,110
1096,86
1097,87
1098,87
1099,147
1100,147
1101,111
1102,111
1103,111
1104,128
1105,107
1106,114
1107,155
1108,112
1109,130
1110,130
1111,90
1112,114
1113,115
1114,115
1115,91
1116,92
1117,152
1118,152
1119,116
1120,116
1121,133
1122,94
1123,118
1124,112
1125,119
1126,120
1127,120
1128,96
1129,138
1130,138
1131,119
1132,162
1133,125
1134,99
1135,97
1136,101
1137,162
1138,157
1139,157
1140,121
1141,124
1142,123
1143,117
1144,123
1145,137
1146,137
1147,143
1148,143
1149,169
1150,159
1151,99
1152,99
1153,129
1154,162
1155,104
1156,106
1157,128
1158,122
1159,128
1160,148
1161,148
1162,167
1163,167
1164,163
1165,163
1166,104
1167,104
1168,144
1169,144
1170,144
1171,144
1172,176
1173,166
1174,133
1175,109
1176,111
1177,153
1178,153
1179,172
1180,172
1181,168
1182,128
1183,148
1184,148
1185,109
1186,109
1187,171
1188,171
1189,111
1190,113
1191,113
1192,132
1193,114
1194,116
1195,151
1196,151
1197,119
1198,118
1199,117
1200,117
1201,114
1202,121
1203,183
1204,177
1205,177
1206,175
1207,137
1208,153
1209,158
1210,158
1211,153
1212,159
1213,162
1214,123
1215,123
1216,122
1217,122
1218,119
1219,126
1220,182
1221,182
1222,142
1223,158
1224,158
1225,158
1226,166
1227,165
1228,167
1229,162
1230,147
1231,128
1232,127
1233,127
1234,124
1235,131
1236,187
1237,163
1238,163
1239,170
1240,172
1241,167
1242,133
1243,129
1244,136
1245,192
1246,168
1247,168
1248,168
1249,168
1250,141
1251,137
1252,138
1253,134
1254,194
1255,194
1256,175
1257,173
1258,172
1259,172
1260,177
1261,173
1262,172
1263,177
1264,198
1265,198
1266,143
1267,139
1268,180
1269,178
1270,177
1271,182
1272,177
1273,181
1274,203
1275,203
1276,148
1277,144
1278,185
1279,183
1280,182
1281,187
1282,182
1283,206
1284,186
1285,186
1286,208
1287,153
1288,149
1289,190
1290,210
1291,211
1292,158
1293,195
1294,190
1295,191
1296,215
1297,88
1298,145
1299,80
1300,163
1301,200
1302,195
1303,220
1304,150
1305,225
1306,168
1307,205
1308,200
1309,173
1310,95
1311,161
1312,172
1313,76
1314,178
1315,140
1316,97
1317,228
1318,143
1319,1
1320,1
1321,1
1322,1
1323,1
1324,1
1325,175
1326,5
1327,1
1328,136
1329,183
1330,14
1331,9
1332,141
1333,153
1334,189
1335,11
1336,11
1337,11
1338,89
1339,181
1340,102
1341,20
1342,156
1343,245
1344,152
1345,21
1346,113
1347,163
1348,196
1349,93
1350,24
1351,126
1352,192
1353,214
1354,174
1355,21
1356,128
1357,12
1358,166
1359,199
1360,9
1361,14
1362,172
1363,27
1364,197
1365,131
1366,13
1367,135
1368,172
1369,206
1370,34
1371,33
1372,11
1373,1
1374,20
1375,44
1376,41
1377,21
1378,192
1379,207
1380,29
1381,16
1382,141
1383,217
1384,132
1385,150
1386,104
1387,33
1388,47
1389,33
1390,203
1391,122
1392,184
1393,216
1394,158
1395,212
1396,151
1397,223
1398,44
1399,115
1400,220
1401,149
1402,172
1403,20
1404,206
1405,1
1406,1
1407,65
1408,5
1409,5
1410,63
1411,26
1412,184
1413,9
1414,9
1415,215
1416,13
1417,13
1418,135
1419,37
1420,235
1421,49
1422,149
1423,154
1424,219
1425,17
1426,17
1427,238
1428,52
1429,157
1430,179
1431,21
1432,21
1433,55
1434,225
1435,245
1436,158
1437,96
1438,25
1439,25
1440,531
1441,29
1442,30
1443,164
1444,32
1445,34
1446,36
1447,38
1448,61
1449,40
1450,167
1451,161
1452,42
1453,44
1454,236
1455,46
1456,48
1457,164
1458,214
1459,50
1460,52
1461,214
1462,181
1463,175
1464,247
1465,54
1466,56
1467,58
1468,250
1469,232
1470,276
1471,278
1472,60
1473,217
1474,217
1475,62
1476,61
1477,66
1478,65
1479,70
1480,69
1481,74
1482,73
1483,78
1484,77
1485,82
1486,81
1487,86
1488,85
1489,90
1490,263
1491,230
1492,236
1493,89
1494,94
1495,93
1496,258
1497,201
1498,98
1499,97
1500,100
1501,104
1502,108
1503,112
1504,116
1505,120
1506,287
1507,206
1508,253
1509,235
1510,238
1511,255
1512,270
1513,285
1514,310
1515,313
1516,319
1517,331
1518,344
1519,347
1520,360
1521,384
