0,1
1,7
2,156
3,150
4,145
5,7
6,1
7,79
8,31
9,1
10,142
11,145
12,134
13,126
14,112
15,107
16,103
17,89
18,81
19,75
20,101
21,122
22,118
23,114
24,39
25,16
26,1
27,71
28,35
29,1
30,7
31,11
32,4
33,1
34,144
35,137
36,131
37,18
38,8
39,1
40,32
41,68
42,49
43,36
44,95
45,15
46,1
47,129
48,111
49,99
50,38
51,1
52,11
53,23
54,31
55,1
56,3
57,1
58,6
59,11
60,16
61,20
62,1
63,3
64,16
65,85
66,79
67,52
68,35
69,24
70,75
71,20
72,9
73,1
74,14
75,1
76,23
77,10
78,1
79,50
80,17
81,27
82,14
83,1
84,40
85,51
86,28
87,1
88,1
89,5
90,1
91,95
92,87
93,1
94,1
95,1
96,1
97,13
98,11
99,11
100,21
101,16
102,1
103,10
104,6
105,3
106,1
107,10
108,5
109,1
110,1
111,15
112,9
113,4
114,6
115,24
116,22
117,1
118,17
119,1
120,25
121,11
122,6
123,6
124,1
125,1
126,16
127,11
128,11
129,57
130,40
131,28
132,6
133,18
134,21
135,16
136,16
137,30
138,25
139,21
140,11
141,19
142,26
143,81
144,38
145,21
146,4
147,16
148,31
149,1
150,16
151,26
152,21
153,1
154,36
155,51
156,22
157,3
158,26
159,11
160,11
161,31
162,21
163,26
164,41
165,6
166,36
167,11
168,46
169,26
170,31
171,16
172,16
173,51
174,31
175,36
176,90
177,22
178,56
179,36
180,36
181,41
182,41
183,40
184,61
185,46
186,28
187,6
188,46
189,66
190,51
191,1
192,1
193,48
194,71
195,56
196,36
197,1
198,4
199,69
200,58
201,51
202,6
203,76
204,16
205,41
206,61
207,11
208,81
209,46
210,66
211,6
212,84
213,16
214,86
215,51
216,71
217,11
218,18
219,91
220,56
221,74
222,10
223,96
224,61
225,20
226,11
227,4
228,101
229,66
230,106
231,68
232,34
233,111
234,115
235,44
236,40
237,36
238,51
239,4
240,1
241,1
242,6
243,1
244,1
245,23
246,1
247,1
248,1
249,8
250,1
251,15
252,18
253,8
254,1
255,17
256,8
257,1
258,22
259,27
260,29
261,31
262,34
263,36
264,19
265,8
266,1
267,43
268,50
269,55
270,57
271,51
272,42
273,36
274,56
275,22
276,1
277,61
278,45
279,34
280,64
281,71
282,78
283,83
284,83
285,64
286,85
287,35
288,97
289,100
290,91
291,76
292,66
293,146
294,109
295,86
296,57
297,46
298,38
299,146
300,120
301,103
302,112
303,73
304,194
305,98
306,84
307,75
308,60
309,117
310,181
311,1
312,1
313,88
314,32
315,65
316,6
317,6
318,6
319,92
320,70
321,11
322,97
323,97
324,11
325,37
326,75
327,102
328,102
329,16
330,42
331,80
332,107
333,107
334,21
335,47
336,259
337,221
338,197
339,26
340,110
341,112
342,85
343,52
344,114
345,31
346,115
347,87
348,57
349,92
350,119
351,119
352,36
353,92
354,97
355,124
356,124
357,41
358,97
359,102
360,129
361,62
362,119
363,102
364,107
365,131
366,64
367,124
368,106
369,112
370,69
371,69
372,309
373,46
374,127
375,74
376,74
377,116
378,116
379,51
380,121
381,79
382,79
383,121
384,56
385,111
386,84
387,84
388,61
389,11
390,90
391,89
392,15
393,72
394,67
395,63
396,16
397,20
398,95
399,93
400,93
401,98
402,98
403,81
404,100
405,107
406,25
407,101
408,100
409,1
410,156
411,133
412,103
413,111
414,30
415,130
416,16
417,108
418,94
419,35
420,115
421,19
422,113
423,119
424,23
425,40
426,124
427,120
428,128
429,112
430,102
431,110
432,94
433,83
434,1
435,45
436,25
437,98
438,115
439,49
440,32
441,21
442,124
443,30
444,6
445,50
446,129
447,35
448,11
449,52
450,132
451,132
452,1
453,333
454,312
455,110
456,104
457,100
458,40
459,16
460,21
461,26
462,152
463,134
464,122
465,1
466,151
467,132
468,31
469,154
470,142
471,134
472,36
473,41
474,45
475,150
476,46
477,48
478,170
479,49
480,186
481,178
482,172
483,119
484,178
485,42
486,198
487,72
488,222
489,209
490,200
491,105
492,86
493,74
494,240
495,273
496,254
497,242
498,299
499,131
500,332
501,313
502,301
503,160
504,144
505,133
506,357
507,182
508,215
509,196
510,184
511,241
512,703
513,1
514,1
515,1
516,8
517,8
518,8
519,10
520,8
521,15
522,15
523,16
524,15
525,5
526,12
527,1
528,17
529,22
530,22
531,22
532,22
533,1
534,19
535,6
536,29
537,29
538,29
539,29
540,28
541,19
542,16
543,6
544,1
545,37
546,36
547,36
548,26
549,36
550,37
551,8
552,36
553,15
554,43
555,44
556,46
557,43
558,43
559,22
560,56
561,29
562,50
563,66
564,50
565,51
566,36
567,76
568,43
569,56
570,57
571,86
572,57
573,50
574,64
575,64
576,64
577,96
578,106
579,71
580,72
581,57
582,78
583,78
584,116
585,64
586,126
587,85
588,86
589,92
590,136
591,99
592,99
593,145
594,106
595,105
596,71
597,113
598,113
599,78
600,120
601,118
602,85
603,127
604,92
605,134
606,134
607,99
608,139
609,139
610,1
611,1
612,106
613,149
614,146
615,96
616,6
617,6
618,101
619,113
620,153
621,11
622,11
623,106
624,159
625,15
626,15
627,120
628,111
629,160
630,20
631,106
632,116
633,169
634,15
635,25
636,25
637,127
638,111
639,121
640,167
641,179
642,125
643,30
644,27
645,32
646,134
647,174
648,130
649,129
650,35
651,37
652,189
653,116
654,133
655,40
656,141
657,42
658,124
659,181
660,122
661,130
662,45
663,47
664,47
665,163
666,146
667,135
668,50
669,52
670,148
671,135
672,135
673,137
674,199
675,188
676,141
677,55
678,57
679,140
680,140
681,52
682,155
683,214
684,195
685,60
686,62
687,145
688,145
689,209
690,57
691,67
692,162
693,160
694,150
695,150
696,187
697,202
698,60
699,65
700,72
701,155
702,152
703,165
704,219
705,165
706,77
707,77
708,169
709,170
710,156
711,229
712,209
713,170
714,161
715,82
716,81
717,175
718,176
719,175
720,216
721,161
722,86
723,87
724,178
725,239
726,115
727,90
728,74
729,82
730,180
731,164
732,91
733,92
734,180
735,168
736,223
737,85
738,185
739,96
740,94
741,88
742,99
743,99
744,101
745,187
746,249
747,230
748,191
749,94
750,104
751,104
752,106
753,196
754,148
755,237
756,99
757,109
758,106
759,111
760,199
761,260
762,108
763,113
764,112
765,203
766,114
767,116
768,244
769,118
770,117
771,208
772,119
773,121
774,269
775,205
776,166
777,123
778,122
779,124
780,126
781,213
782,251
783,128
784,127
785,129
786,131
787,218
788,266
789,264
790,173
791,104
792,133
793,132
794,134
795,117
796,109
797,138
798,139
799,122
800,114
801,144
802,159
803,143
804,270
805,148
806,147
807,136
808,70
809,191
810,312
811,278
812,163
813,118
814,153
815,75
816,196
817,177
818,151
819,134
820,289
821,158
822,80
823,201
824,154
825,145
826,139
827,163
828,85
829,204
830,214
831,210
832,206
833,134
834,126
835,120
836,168
837,88
838,296
839,167
840,173
841,303
842,303
843,178
844,106
845,97
846,91
847,146
848,212
849,184
850,307
851,267
852,238
853,220
854,119
855,185
856,176
857,169
858,311
859,318
860,200
861,192
862,186
863,157
864,152
865,148
866,325
867,165
868,211
869,198
870,325
871,306
872,354
873,229
874,220
875,213
876,225
877,210
878,200
879,221
880,242
881,280
882,258
883,244
884,510
885,310
886,246
887,639
888,169
889,1
890,10
891,1
892,7
893,1
894,7
895,1
896,9
897,19
898,29
899,38
900,49
901,1
902,44
903,53
904,62
905,43
906,51
907,59
908,21
909,29
910,30
911,136
912,127
913,118
914,43
915,45
916,63
917,68
918,73
919,78
920,83
921,88
922,93
923,98
924,103
925,106
926,63
927,68
928,73
929,78
930,83
931,88
932,93
933,98
934,102
935,77
936,82
937,87
938,92
939,97
940,102
941,107
942,112
943,117
944,121
945,77
946,82
947,87
948,92
949,97
950,102
951,107
952,110
953,98
954,103
955,108
956,113
957,118
958,124
959,119
960,124
961,130
962,110
963,115
964,120
965,125
966,106
967,111
968,116
969,121
970,102
971,107
972,112
973,117
974,114
975,119
976,124
977,129
978,128
979,133
980,138
981,143
982,106
983,111
984,116
985,121
986,82
987,87
988,92
989,97
990,82
991,87
992,92
993,97
994,82
995,87
996,92
997,97
998,92
999,97
1000,102
1001,107
1002,24
1003,32
1004,40
1005,45
1006,54
1007,52
1008,59
1009,66
1010,73
1011,52
1012,59
1013,66
1014,73
1015,80
1016,87
1017,94
1018,101
1019,108
1020,115
1021,7
1022,1
1023,1
1024,5
1025,9
1026,13
1027,17
1028,21
1029,45
1030,166
1031,154
1032,145
1033,183
1034,178
1035,168
1036,161
1037,193
1038,146
1039,137
1040,131
1041,159
1042,143
1043,131
1044,123
1045,160
1046,129
1047,111
1048,99
1049,154
1050,200
1051,177
1052,162
1053,231
1054,247
1055,226
1056,212
1057,275
1058,173
1059,145
1060,127
1061,210
1062,55
1063,1
1064,203
1065,894
1066,233
1067,212
1068,198
1069,178
1070,164
1071,143
1072,122
1073,108
1074,122
1075,135
1076,156
1077,170
1078,155
1079,133
1080,125
1081,53
1082,62
1083,71
1084,29
1085,38
1086,47
1087,140
1088,145
1089,150
1090,155
1091,160
1092,165
1093,170
1094,175
1095,178
1096,120
1097,125
1098,130
1099,140
1100,145
1101,150
1102,155
1103,160
1104,165
1105,169
1106,154
1107,159
1108,164
1109,169
1110,174
1111,179
1112,182
1113,154
1114,159
1115,164
1116,169
1117,135
1118,140
1119,145
1120,150
1121,164
1122,169
1123,174
1124,179
1125,173
1126,178
1127,183
1128,188
1129,182
1130,187
1131,192
1132,197
1133,164
1134,169
1135,174
1136,179
1137,162
1138,167
1139,172
1140,177
1141,182
1142,187
1143,192
1144,197
1145,203
1146,135
1147,140
1148,145
1149,150
1150,21
1151,20
1152,20
1153,54
1154,53
1155,21
1156,26
1157,34
1158,42
1159,155
1160,1
1161,9
1162,17
1163,25
1164,33
1165,41
1166,49
1167,57
1168,65
1169,73
1170,79
1171,42
1172,1
1173,9
1174,18
1175,26
1176,34
1177,42
1178,50
1179,58
1180,66
1181,74
1182,82
1183,90
1184,98
1185,106
1186,115
1187,122
1188,129
1189,136
1190,143
1191,151
1192,158
1193,122
1194,129
1195,136
1196,143
1197,150
1198,157
1199,162
1200,26
1201,34
1202,42
1203,50
1204,58
1205,66
1206,74
1207,82
1208,90
1209,98
1210,100
1211,51
1212,67
1213,232
1214,162
1215,122
1216,86
1217,93
1218,100
1219,107
1220,114
1221,121
1222,128
1223,135
1224,139
1225,86
1226,93
1227,100
1228,107
1229,114
1230,121
1231,128
1232,135
1233,139
1234,107
1235,114
1236,121
1237,128
1238,135
1239,142
1240,149
1241,155
1242,107
1243,114
1244,121
1245,128
1246,135
1247,142
1248,149
1249,155
1250,107
1251,115
1252,107
1253,115
1254,162
1255,169
1256,176
1257,182
1258,155
1259,162
1260,169
1261,175
1262,189
1263,196
1264,203
1265,210
1266,217
1267,226
1268,182
1269,189
1270,196
1271,203
1272,210
1273,213
1274,148
1275,141
1276,134
1277,127
1278,120
1279,113
1280,148
1281,141
1282,134
1283,127
1284,120
1285,113
1286,86
1287,93
1288,100
1289,108
1290,86
1291,93
1292,100
1293,108
1294,178
1295,185
1296,132
1297,142
1298,152
1299,163
1300,169
1301,1
1302,5
1303,9
1304,13
1305,17
1306,21
1307,25
1308,28
1309,1
1310,5
1311,9
1312,14
1313,248
1314,237
1315,229
1316,265
1317,210
1318,198
1319,190
1320,227
1321,195
1322,171
1323,156
1324,227
1325,279
1326,251
1327,233
1328,316
1329,378
1330,356
1331,342
1332,407
1333,264
1334,232
1335,212
1336,306
1337,325
1338,315
1339,308
1340,340
1341,285
1342,236
1343,246
1344,252
1345,262
1346,262
1347,110
1348,108
1349,114
1350,112
1351,11
1352,21
1353,31
1354,43
1355,63
1356,73
1357,83
1358,93
1359,102
1360,15
1361,25
1362,35
1363,44
1364,106
1365,96
1366,53
1367,63
1368,73
1369,83
1370,92
1371,5
1372,1
1373,1
1374,290
1375,290
1376,174
1377,233
1378,140
1379,132
1380,124
1381,61
1382,60
1383,59
1384,121
1385,51
1386,54
1387,191
1388,201
1389,208
1390,91
1391,99
1392,107
1393,115
1394,123
1395,131
1396,133
1397,76
1398,83
1399,41
1400,49
1401,57
1402,65
1403,68
1404,116
1405,126
1406,40
1407,48
1408,56
1409,64
1410,72
1411,55
1412,79
1413,86
1414,93
1415,100
1416,107
1417,114
1418,121
1419,128
1420,135
1421,142
1422,149
1423,156
1424,163
1425,170
1426,176
1427,140
1428,147
1429,154
1430,161
1431,168
1432,175
1433,182
1434,189
1435,196
1436,203
1437,210
1438,217
1439,224
1440,231
1441,238
1442,244
1443,79
1444,86
1445,93
1446,100
1447,104
1448,140
1449,147
1450,154
1451,162
1452,102
1453,109
1454,82
1455,92
1456,161
1457,141
1458,151
1459,161
1460,171
1461,181
1462,191
1463,201
1464,253
1465,263
1466,273
1467,283
1468,293
1469,306
1470,283
1471,273
1472,283
1473,137
1474,147
1475,154
1476,18
1477,22
1478,26
1479,30
1480,33
1481,37
1482,41
1483,45
1484,49
1485,52
1486,32
1487,36
1488,40
1489,45
1490,115
1491,139
1492,187
1493,193
1494,199
1495,205
1496,187
1497,193
1498,199
1499,204
1500,180
1501,186
1502,192
1503,197
1504,173
1505,179
1506,185
1507,190
1508,109
1509,115
1510,121
1511,126
1512,105
1513,111
1514,117
1515,122
1516,98
1517,104
1518,110
1519,116
1520,91
1521,97
1522,103
1523,109
1524,110
1525,91
1526,97
1527,103
1528,109
1529,110
1530,84
1531,90
1532,96
1533,103
1534,84
1535,90
1536,96
1537,103
1538,119
1539,125
1540,131
1541,136
1542,112
1543,118
1544,124
1545,129
1546,112
1547,118
1548,124
1549,129
1550,105
1551,111
1552,118
1553,125
1554,98
1555,104
1556,110
1557,117
1558,91
1559,97
1560,103
1561,110
1562,91
1563,97
1564,104
1565,111
1566,145
1567,151
1568,157
1569,162
1570,167
1571,173
1572,179
1573,185
1574,159
1575,165
1576,171
1577,176
1578,159
1579,165
1580,171
1581,175
1582,152
1583,158
1584,164
1585,168
1586,145
1587,151
1588,157
1589,162
1590,152
1591,158
1592,164
1593,169
1594,166
1595,172
1596,178
1597,183
1598,166
1599,172
1600,178
1601,182
1602,159
1603,165
1604,171
1605,175
1606,147
1607,153
1608,159
1609,164
1610,140
1611,146
1612,152
1613,157
1614,133
1615,139
1616,145
1617,151
1618,133
1619,139
1620,145
1621,151
1622,126
1623,132
1624,138
1625,144
1626,168
1627,174
1628,180
1629,185
1630,161
1631,167
1632,173
1633,178
1634,154
1635,160
1636,166
1637,171
1638,154
1639,160
1640,166
1641,171
1642,194
1643,200
1644,206
1645,212
1646,201
1647,207
1648,213
1649,219
1650,208
1651,214
1652,220
1653,226
1654,227
1655,208
1656,214
1657,220
1658,226
1659,227
1660,215
1661,221
1662,227
1663,233
1664,234
1665,222
1666,228
1667,234
1668,237
1669,229
1670,235
1671,241
1672,244
1673,229
1674,235
1675,241
1676,244
1677,236
1678,242
1679,248
1680,251
1681,243
1682,249
1683,255
1684,258
1685,152
1686,158
1687,164
1688,168
1689,175
1690,182
1691,189
1692,194
1693,175
1694,182
1695,189
1696,194
1697,274
1698,301
1699,260
1700,258
1701,275
1702,261
1703,259
1704,277
1705,262
1706,260
1707,278
1708,263
1709,261
1710,280
1711,264
1712,262
1713,273
1714,260
1715,258
1716,274
1717,261
1718,259
1719,275
1720,262
1721,260
1722,276
1723,263
1724,261
1725,278
1726,264
1727,262
1728,270
1729,260
1730,258
1731,271
1732,261
1733,259
1734,274
1735,262
1736,260
1737,275
1738,263
1739,261
1740,276
1741,264
1742,262
1743,268
1744,260
1745,258
1746,269
1747,261
1748,259
1749,271
1750,262
1751,260
1752,272
1753,263
1754,261
1755,275
1756,264
1757,262
1758,154
1759,150
1760,148
1761,155
1762,151
1763,149
1764,208
1765,152
1766,150
1767,210
1768,153
1769,151
1770,214
1771,154
1772,152
1773,207
1774,204
1775,202
1776,209
1777,205
1778,203
1779,213
1780,206
1781,204
1782,214
1783,207
1784,205
1785,215
1786,208
1787,206
1788,208
1789,143
1790,141
1791,212
1792,144
1793,142
1794,213
1795,145
1796,143
1797,214
1798,146
1799,144
1800,215
1801,147
1802,145
1803,210
1804,204
1805,202
1806,211
1807,205
1808,203
1809,213
1810,206
1811,204
1812,214
1813,207
1814,205
1815,216
1816,208
1817,206
1818,218
1819,209
1820,207
1821,212
1822,204
1823,202
1824,213
1825,205
1826,203
1827,215
1828,206
1829,204
1830,217
1831,207
1832,205
1833,218
1834,208
1835,206
1836,219
1837,209
1838,207
1839,214
1840,204
1841,202
1842,216
1843,205
1844,203
1845,217
1846,206
1847,204
1848,218
1849,207
1850,205
1851,220
1852,208
1853,206
1854,221
1855,209
1856,207
1857,216
1858,204
1859,202
1860,217
1861,205
1862,203
1863,219
1864,206
1865,204
1866,220
1867,207
1868,205
1869,222
1870,208
1871,206
1872,223
1873,209
1874,207
1875,230
1876,165
1877,163
1878,231
1879,166
1880,164
1881,234
1882,167
1883,165
1884,235
1885,168
1886,166
1887,236
1888,169
1889,167
1890,228
1891,165
1892,163
1893,229
1894,166
1895,164
1896,231
1897,167
1898,165
1899,232
1900,168
1901,166
1902,235
1903,169
1904,167
1905,226
1906,165
1907,163
1908,227
1909,166
1910,164
1911,229
1912,167
1913,165
1914,230
1915,168
1916,166
1917,232
1918,169
1919,167
1920,224
1921,204
1922,202
1923,225
1924,205
1925,203
1926,226
1927,206
1928,204
1929,227
1930,207
1931,205
1932,228
1933,208
1934,206
1935,230
1936,209
1937,207
1938,222
1939,204
1940,202
1941,223
1942,205
1943,203
1944,225
1945,206
1946,204
1947,226
1948,207
1949,205
1950,227
1951,208
1952,206
1953,228
1954,209
1955,207
1956,220
1957,204
1958,202
1959,221
1960,205
1961,203
1962,223
1963,206
1964,204
1965,224
1966,207
1967,205
1968,226
1969,208
1970,206
1971,227
1972,209
1973,207
1974,218
1975,204
1976,202
1977,219
1978,205
1979,203
1980,221
1981,206
1982,204
1983,222
1984,207
1985,205
1986,224
1987,208
1988,206
1989,225
1990,209
1991,207
1992,205
1993,196
1994,194
1995,206
1996,197
1997,195
1998,211
1999,198
2000,196
2001,212
2002,199
2003,197
2004,213
2005,200
2006,198
2007,190
2008,188
2009,186
2010,191
2011,189
2012,187
2013,192
2014,190
2015,188
2016,194
2017,191
2018,189
2019,209
2020,192
2021,190
2022,181
2023,179
2024,177
2025,191
2026,180
2027,178
2028,193
2029,181
2030,179
2031,200
2032,182
2033,180
2034,201
2035,183
2036,181
2037,199
2038,196
2039,194
2040,200
2041,197
2042,195
2043,202
2044,198
2045,196
2046,203
2047,199
2048,197
2049,205
2050,200
2051,198
2052,201
2053,196
2054,194
2055,202
2056,197
2057,195
2058,204
2059,198
2060,196
2061,207
2062,199
2063,197
2064,208
2065,200
2066,198
2067,203
2068,196
2069,194
2070,205
2071,197
2072,195
2073,206
2074,198
2075,196
2076,208
2077,199
2078,197
2079,212
2080,200
2081,198
2082,210
2083,208
2084,206
2085,211
2086,209
2087,207
2088,212
2089,210
2090,208
2091,213
2092,211
2093,209
2094,214
2095,212
2096,210
2097,266
2098,260
2099,258
2100,267
2101,261
2102,259
2103,269
2104,262
2105,260
2106,270
2107,263
2108,261
2109,272
2110,264
2111,262
2112,264
2113,260
2114,258
2115,265
2116,261
2117,259
2118,267
2119,262
2120,260
2121,268
2122,263
2123,261
2124,270
2125,264
2126,262
2127,262
2128,260
2129,258
2130,263
2131,261
2132,259
2133,265
2134,262
2135,260
2136,266
2137,263
2138,261
2139,268
2140,264
2141,262
2142,240
2143,215
2144,213
2145,241
2146,216
2147,214
2148,243
2149,217
2150,215
2151,244
2152,218
2153,216
2154,246
2155,219
2156,217
2157,238
2158,215
2159,213
2160,239
2161,216
2162,214
2163,241
2164,217
2165,215
2166,242
2167,218
2168,216
2169,244
2170,219
2171,217
2172,236
2173,215
2174,213
2175,237
2176,216
2177,214
2178,238
2179,217
2180,215
2181,239
2182,218
2183,216
2184,240
2185,219
2186,217
2187,234
2188,173
2189,171
2190,234
2191,174
2192,172
2193,235
2194,175
2195,173
2196,237
2197,176
2198,174
2199,238
2200,177
2201,175
2202,233
2203,165
2204,163
2205,234
2206,166
2207,164
2208,235
2209,167
2210,165
2211,236
2212,168
2213,166
2214,237
2215,169
2216,167
2217,248
2218,214
2219,212
2220,249
2221,215
2222,213
2223,251
2224,216
2225,214
2226,252
2227,217
2228,215
2229,254
2230,218
2231,216
2232,246
2233,215
2234,213
2235,247
2236,216
2237,214
2238,249
2239,217
2240,215
2241,250
2242,218
2243,216
2244,252
2245,219
2246,217
2247,244
2248,215
2249,213
2250,245
2251,216
2252,214
2253,247
2254,217
2255,215
2256,248
2257,218
2258,216
2259,250
2260,219
2261,217
2262,242
2263,215
2264,213
2265,243
2266,216
2267,214
2268,245
2269,217
2270,215
2271,246
2272,218
2273,216
2274,248
2275,219
2276,217
2277,276
2278,260
2279,258
2280,277
2281,261
2282,259
2283,279
2284,262
2285,260
2286,280
2287,263
2288,261
2289,282
2290,264
2291,262
2292,283
2293,265
2294,263
2295,278
2296,260
2297,258
2298,279
2299,261
2300,259
2301,281
2302,262
2303,260
2304,282
2305,263
2306,261
2307,284
2308,264
2309,262
2310,285
2311,265
2312,263
2313,280
2314,260
2315,258
2316,281
2317,261
2318,259
2319,283
2320,262
2321,260
2322,284
2323,263
2324,261
2325,286
2326,264
2327,262
2328,287
2329,265
2330,263
2331,282
2332,260
2333,258
2334,283
2335,261
2336,259
2337,285
2338,262
2339,260
2340,286
2341,263
2342,261
2343,287
2344,264
2345,262
2346,288
2347,265
2348,263
2349,284
2350,248
2351,246
2352,285
2353,249
2354,247
2355,286
2356,250
2357,248
2358,287
2359,251
2360,249
2361,288
2362,252
2363,250
2364,289
2365,253
2366,251
2367,289
2368,286
2369,284
2370,290
2371,287
2372,285
2373,292
2374,288
2375,286
2376,293
2377,289
2378,287
2379,295
2380,290
2381,288
2382,291
2383,286
2384,284
2385,292
2386,287
2387,285
2388,294
2389,288
2390,286
2391,295
2392,289
2393,287
2394,297
2395,290
2396,288
2397,293
2398,286
2399,284
2400,294
2401,287
2402,285
2403,296
2404,288
2405,286
2406,297
2407,289
2408,287
2409,299
2410,290
2411,288
2412,295
2413,286
2414,284
2415,296
2416,287
2417,285
2418,298
2419,288
2420,286
2421,299
2422,289
2423,287
2424,300
2425,290
2426,288
2427,297
2428,286
2429,284
2430,298
2431,287
2432,285
2433,299
2434,288
2435,286
2436,300
2437,289
2438,287
2439,301
2440,290
2441,288
2442,211
2443,208
2444,206
2445,212
2446,209
2447,207
2448,263
2449,210
2450,208
2451,264
2452,211
2453,209
2454,266
2455,212
2456,210
2457,250
2458,214
2459,212
2460,251
2461,215
2462,213
2463,253
2464,216
2465,214
2466,254
2467,217
2468,215
2469,255
2470,218
2471,216
2472,252
2473,214
2474,212
2475,253
2476,215
2477,213
2478,254
2479,216
2480,214
2481,255
2482,217
2483,215
2484,256
2485,218
2486,216
2487,126
2488,149
2489,155
2490,161
2491,167
2492,173
2493,179
2494,185
2495,187
2496,193
2497,199
2498,140
2499,146
2500,152
2501,158
2502,164
2503,170
2504,176
2505,182
2506,188
2507,195
2508,135
2509,141
2510,147
2511,153
2512,156
2513,164
2514,172
2515,178
2516,184
2517,190
2518,196
2519,202
2520,206
2521,128
2522,134
2523,141
2524,134
2525,133
2526,184
2527,190
2528,196
2529,202
2530,205
2531,181
2532,187
2533,193
2534,199
2535,205
2536,211
2537,217
2538,223
2539,229
2540,235
2541,241
2542,247
2543,251
2544,233
2545,239
2546,245
2547,251
2548,257
2549,263
2550,269
2551,275
2552,277
2553,205
2554,203
2555,201
2556,199
2557,245
2558,213
2559,211
2560,209
2561,246
2562,213
2563,211
2564,247
2565,213
2566,211
2567,248
2568,213
2569,211
2570,249
2571,213
2572,211
2573,250
2574,213
2575,211
2576,251
2577,213
2578,211
2579,234
2580,180
2581,178
2582,176
2583,235
2584,180
2585,178
2586,232
2587,172
2588,170
2589,168
2590,233
2591,172
2592,170
2593,225
2594,164
2595,162
2596,160
2597,226
2598,164
2599,162
2600,227
2601,164
2602,162
2603,228
2604,164
2605,162
2606,229
2607,164
2608,162
2609,230
2610,164
2611,162
2612,231
2613,164
2614,162
2615,208
2616,203
2617,201
2618,199
2619,209
2620,203
2621,201
2622,210
2623,203
2624,201
2625,211
2626,203
2627,201
2628,212
2629,203
2630,201
2631,213
2632,203
2633,201
2634,214
2635,203
2636,201
2637,215
2638,203
2639,201
2640,216
2641,203
2642,201
2643,217
2644,203
2645,201
2646,218
2647,203
2648,201
2649,219
2650,203
2651,201
2652,220
2653,203
2654,201
2655,221
2656,203
2657,201
2658,222
2659,203
2660,201
2661,223
2662,203
2663,201
2664,206
2665,142
2666,140
2667,138
2668,207
2669,142
2670,140
2671,224
2672,141
2673,139
2674,137
2675,236
2676,214
2677,212
2678,210
2679,237
2680,214
2681,212
2682,238
2683,214
2684,212
2685,239
2686,214
2687,212
2688,240
2689,214
2690,212
2691,241
2692,214
2693,212
2694,242
2695,214
2696,212
2697,243
2698,214
2699,212
2700,244
2701,214
2702,212
2703,159
2704,157
2705,155
2706,153
2707,160
2708,157
2709,155
2710,197
2711,195
2712,193
2713,191
2714,198
2715,195
2716,193
2717,199
2718,195
2719,193
2720,200
2721,195
2722,193
2723,201
2724,195
2725,193
2726,202
2727,195
2728,193
2729,203
2730,195
2731,193
2732,204
2733,195
2734,193
2735,205
2736,195
2737,193
2738,206
2739,195
2740,193
2741,281
2742,247
2743,245
2744,243
2745,282
2746,247
2747,245
2748,283
2749,247
2750,245
2751,151
2752,149
2753,147
2754,145
2755,152
2756,149
2757,147
2758,153
2759,149
2760,147
2761,154
2762,149
2763,147
2764,155
2765,149
2766,147
2767,209
2768,207
2769,205
2770,203
2771,210
2772,207
2773,205
2774,211
2775,207
2776,205
2777,261
2778,259
2779,257
2780,255
2781,262
2782,259
2783,257
2784,263
2785,259
2786,257
2787,264
2788,259
2789,257
2790,265
2791,259
2792,257
2793,266
2794,259
2795,257
2796,267
2797,259
2798,257
2799,268
2800,259
2801,257
2802,269
2803,259
2804,257
2805,270
2806,259
2807,257
2808,271
2809,259
2810,257
2811,272
2812,259
2813,257
2814,273
2815,259
2816,257
2817,274
2818,259
2819,257
2820,274
2821,259
2822,257
2823,276
2824,259
2825,257
2826,277
2827,259
2828,257
2829,278
2830,259
2831,257
2832,279
2833,259
2834,257
2835,280
2836,259
2837,257
2838,287
2839,285
2840,283
2841,281
2842,288
2843,285
2844,283
2845,289
2846,285
2847,283
2848,290
2849,285
2850,283
2851,291
2852,285
2853,283
2854,292
2855,285
2856,283
2857,293
2858,285
2859,283
2860,294
2861,285
2862,283
2863,295
2864,285
2865,283
2866,296
2867,285
2868,283
2869,271
2870,199
2871,185
2872,190
2873,200
2874,316
2875,326
2876,336
2877,346
2878,356
2879,366
2880,169
2881,165
2882,290
2883,290
2884,115
2885,123
2886,131
2887,150
2888,142
2889,134
2890,123
2891,115
2892,107
2893,108
2894,116
2895,124
2896,1
2897,99
2898,102
2899,120
2900,126
2901,88
2902,96
2903,104
2904,112
2905,137
2906,114
2907,124
2908,134
2909,139
2910,74
2911,82
2912,90
2913,98
2914,106
2915,114
2916,122
2917,128
2918,135
2919,142
2920,149
2921,156
2922,163
2923,170
2924,177
2925,184
2926,191
2927,198
2928,205
2929,212
2930,219
2931,226
2932,233
2933,119
2934,126
2935,133
2936,137
2937,119
2938,126
2939,133
2940,140
2941,147
2942,154
2943,161
2944,168
2945,175
2946,182
2947,189
2948,196
2949,203
2950,210
2951,217
2952,224
2953,231
2954,237
2955,135
2956,142
2957,149
2958,153
2959,156
2960,138
2961,147
2962,246
2963,254
2964,159
2965,264
2966,264
2967,125
2968,107
2969,184
2970,194
2971,201
2972,193
2973,203
2974,210
2975,56
2976,61
2977,65
2978,69
2979,73
2980,77
2981,80
2982,87
2983,91
2984,96
2985,74
2986,78
2987,82
2988,49
2989,53
2990,57
2991,62
2992,66
2993,70
2994,83
2995,1
2996,135
2997,138
2998,180
2999,186
3000,192
3001,198
3002,204
3003,210
3004,215
3005,173
3006,179
3007,186
3008,192
3009,198
3010,204
3011,208
3012,173
3013,179
3014,185
3015,191
3016,197
3017,203
3018,207
3019,166
3020,172
3021,178
3022,184
3023,190
3024,196
3025,199
3026,159
3027,165
3028,171
3029,177
3030,183
3031,189
3032,192
3033,231
3034,237
3035,243
3036,249
3037,255
3038,259
3039,238
3040,244
3041,250
3042,256
3043,262
3044,266
3045,140
3046,146
3047,152
3048,158
3049,164
3050,170
3051,172
3052,140
3053,146
3054,152
3055,158
3056,164
3057,170
3058,172
3059,140
3060,146
3061,152
3062,158
3063,164
3064,170
3065,171
3066,147
3067,153
3068,159
3069,165
3070,171
3071,177
3072,178
3073,154
3074,160
3075,166
3076,172
3077,178
3078,184
3079,186
3080,158
3081,164
3082,170
3083,176
3084,182
3085,188
3086,190
3087,142
3088,148
3089,154
3090,160
3091,166
3092,172
3093,174
3094,131
3095,137
3096,143
3097,149
3098,155
3099,161
3100,163
3101,131
3102,137
3103,143
3104,149
3105,155
3106,161
3107,163
3108,124
3109,130
3110,136
3111,142
3112,148
3113,154
3114,155
3115,124
3116,130
3117,136
3118,142
3119,148
3120,154
3121,155
3122,131
3123,137
3124,143
3125,149
3126,155
3127,161
3128,138
3129,144
3130,150
3131,156
3132,162
3133,168
3134,171
3135,147
3136,153
3137,159
3138,165
3139,171
3140,177
3141,179
3142,138
3143,144
3144,150
3145,156
3146,162
3147,168
3148,171
3149,145
3150,151
3151,157
3152,163
3153,169
3154,175
3155,176
3156,152
3157,158
3158,164
3159,170
3160,176
3161,182
3162,184
3163,182
3164,188
3165,194
3166,200
3167,206
3168,211
3169,196
3170,202
3171,208
3172,214
3173,220
3174,222
3175,154
3176,160
3177,166
3178,172
3179,178
3180,184
3181,186
3182,154
3183,160
3184,166
3185,172
3186,178
3187,184
3188,186
3189,161
3190,167
3191,173
3192,179
3193,185
3194,190
3195,168
3196,174
3197,180
3198,186
3199,192
3200,197
3201,175
3202,181
3203,187
3204,193
3205,199
3206,204
3207,152
3208,158
3209,164
3210,170
3211,176
3212,182
3213,184
3214,175
3215,181
3216,187
3217,193
3218,199
3219,204
3220,189
3221,195
3222,201
3223,207
3224,213
3225,218
3226,196
3227,202
3228,208
3229,214
3230,220
3231,225
3232,203
3233,209
3234,215
3235,221
3236,227
3237,229
3238,210
3239,216
3240,222
3241,228
3242,234
3243,236
3244,217
3245,223
3246,229
3247,235
3248,241
3249,244
3250,217
3251,224
3252,230
3253,236
3254,242
3255,246
3256,224
3257,230
3258,236
3259,242
3260,248
3261,252
3262,131
3263,137
3264,143
3265,149
3266,155
3267,161
3268,164
3269,187
3270,193
3271,199
3272,205
3273,211
3274,217
3275,222
3276,194
3277,200
3278,206
3279,212
3280,218
3281,224
3282,230
3283,194
3284,200
3285,206
3286,212
3287,218
3288,224
3289,230
3290,201
3291,207
3292,213
3293,219
3294,225
3295,231
3296,237
3297,238
3298,208
3299,215
3300,221
3301,227
3302,233
3303,239
3304,245
3305,246
3306,215
3307,221
3308,227
3309,233
3310,239
3311,245
3312,248
3313,215
3314,221
3315,227
3316,233
3317,239
3318,245
3319,248
3320,222
3321,228
3322,234
3323,240
3324,246
3325,247
3326,229
3327,235
3328,241
3329,247
3330,253
3331,254
3332,236
3333,242
3334,248
3335,254
3336,260
3337,261
3338,269
3339,267
3340,270
3341,268
3342,271
3343,269
3344,272
3345,270
3346,273
3347,271
3348,280
3349,278
3350,281
3351,279
3352,282
3353,280
3354,283
3355,281
3356,284
3357,282
3358,285
3359,283
3360,269
3361,267
3362,270
3363,268
3364,271
3365,269
3366,272
3367,270
3368,273
3369,271
3370,279
3371,277
3372,280
3373,278
3374,281
3375,279
3376,282
3377,280
3378,283
3379,281
3380,269
3381,267
3382,270
3383,268
3384,271
3385,269
3386,272
3387,270
3388,273
3389,271
3390,279
3391,277
3392,280
3393,278
3394,281
3395,279
3396,282
3397,280
3398,283
3399,281
3400,269
3401,267
3402,270
3403,268
3404,271
3405,269
3406,272
3407,270
3408,273
3409,271
3410,279
3411,277
3412,280
3413,278
3414,281
3415,279
3416,282
3417,280
3418,283
3419,281
3420,269
3421,267
3422,270
3423,268
3424,271
3425,269
3426,272
3427,270
3428,273
3429,271
3430,279
3431,277
3432,280
3433,278
3434,281
3435,279
3436,282
3437,280
3438,283
3439,281
3440,287
3441,285
3442,288
3443,286
3444,289
3445,287
3446,290
3447,288
3448,296
3449,294
3450,297
3451,295
3452,298
3453,296
3454,299
3455,297
3456,300
3457,298
3458,287
3459,285
3460,288
3461,286
3462,289
3463,287
3464,290
3465,288
3466,296
3467,294
3468,297
3469,295
3470,298
3471,296
3472,299
3473,297
3474,300
3475,298
3476,255
3477,253
3478,256
3479,254
3480,257
3481,255
3482,258
3483,256
3484,265
3485,263
3486,266
3487,264
3488,267
3489,265
3490,268
3491,266
3492,269
3493,267
3494,255
3495,253
3496,256
3497,254
3498,257
3499,255
3500,258
3501,256
3502,265
3503,263
3504,266
3505,264
3506,267
3507,265
3508,268
3509,266
3510,269
3511,267
3512,217
3513,215
3514,218
3515,216
3516,219
3517,217
3518,226
3519,224
3520,227
3521,225
3522,228
3523,226
3524,229
3525,227
3526,230
3527,228
3528,217
3529,215
3530,218
3531,216
3532,219
3533,217
3534,226
3535,224
3536,227
3537,225
3538,228
3539,226
3540,229
3541,227
3542,230
3543,228
3544,217
3545,215
3546,218
3547,216
3548,219
3549,217
3550,220
3551,218
3552,227
3553,225
3554,228
3555,226
3556,229
3557,227
3558,230
3559,228
3560,231
3561,229
3562,217
3563,215
3564,218
3565,216
3566,219
3567,217
3568,220
3569,218
3570,221
3571,219
3572,227
3573,225
3574,228
3575,226
3576,229
3577,227
3578,230
3579,228
3580,231
3581,229
3582,227
3583,225
3584,217
3585,215
3586,218
3587,216
3588,219
3589,217
3590,220
3591,218
3592,221
3593,219
3594,227
3595,225
3596,228
3597,226
3598,229
3599,227
3600,230
3601,228
3602,231
3603,229
3604,248
3605,246
3606,249
3607,247
3608,250
3609,248
3610,251
3611,249
3612,252
3613,250
3614,258
3615,256
3616,259
3617,257
3618,260
3619,258
3620,261
3621,259
3622,248
3623,246
3624,249
3625,247
3626,250
3627,248
3628,251
3629,249
3630,252
3631,250
3632,258
3633,256
3634,259
3635,257
3636,260
3637,258
3638,248
3639,246
3640,249
3641,247
3642,250
3643,248
3644,251
3645,249
3646,252
3647,250
3648,258
3649,256
3650,259
3651,257
3652,260
3653,258
3654,248
3655,246
3656,249
3657,247
3658,250
3659,248
3660,251
3661,249
3662,252
3663,250
3664,258
3665,256
3666,259
3667,257
3668,260
3669,258
3670,248
3671,246
3672,249
3673,247
3674,250
3675,248
3676,251
3677,249
3678,252
3679,250
3680,258
3681,256
3682,259
3683,257
3684,260
3685,258
3686,261
3687,259
3688,202
3689,200
3690,203
3691,201
3692,204
3693,202
3694,205
3695,203
3696,206
3697,204
3698,212
3699,210
3700,213
3701,211
3702,214
3703,212
3704,215
3705,213
3706,216
3707,214
3708,255
3709,253
3710,256
3711,254
3712,257
3713,255
3714,258
3715,256
3716,265
3717,263
3718,266
3719,264
3720,267
3721,265
3722,268
3723,266
3724,269
3725,267
3726,260
3727,258
3728,261
3729,259
3730,262
3731,260
3732,263
3733,261
3734,264
3735,262
3736,265
3737,263
3738,271
3739,269
3740,272
3741,270
3742,273
3743,271
3744,274
3745,272
3746,260
3747,258
3748,261
3749,259
3750,262
3751,260
3752,263
3753,261
3754,264
3755,262
3756,270
3757,268
3758,271
3759,269
3760,272
3761,270
3762,273
3763,271
3764,274
3765,272
3766,269
3767,267
3768,270
3769,268
3770,271
3771,269
3772,272
3773,270
3774,273
3775,271
3776,279
3777,277
3778,280
3779,278
3780,281
3781,279
3782,282
3783,280
3784,283
3785,281
3786,248
3787,246
3788,249
3789,247
3790,250
3791,248
3792,251
3793,249
3794,257
3795,255
3796,258
3797,256
3798,259
3799,257
3800,260
3801,258
3802,261
3803,259
3804,275
3805,273
3806,276
3807,274
3808,277
3809,275
3810,278
3811,276
3812,284
3813,282
3814,285
3815,283
3816,255
3817,253
3818,256
3819,254
3820,257
3821,255
3822,258
3823,256
3824,265
3825,263
3826,266
3827,264
3828,267
3829,265
3830,268
3831,266
3832,269
3833,267
3834,255
3835,253
3836,256
3837,254
3838,257
3839,255
3840,258
3841,256
3842,265
3843,263
3844,266
3845,264
3846,267
3847,265
3848,268
3849,266
3850,269
3851,267
3852,248
3853,246
3854,249
3855,247
3856,250
3857,248
3858,257
3859,255
3860,258
3861,256
3862,259
3863,257
3864,260
3865,258
3866,261
3867,259
3868,248
3869,246
3870,249
3871,247
3872,250
3873,248
3874,256
3875,254
3876,257
3877,255
3878,258
3879,256
3880,259
3881,257
3882,260
3883,258
3884,248
3885,246
3886,249
3887,247
3888,250
3889,248
3890,256
3891,254
3892,257
3893,255
3894,258
3895,256
3896,259
3897,257
3898,260
3899,258
3900,269
3901,267
3902,270
3903,268
3904,271
3905,269
3906,272
3907,270
3908,273
3909,271
3910,279
3911,277
3912,280
3913,278
3914,281
3915,279
3916,282
3917,280
3918,283
3919,281
3920,248
3921,246
3922,249
3923,247
3924,250
3925,248
3926,256
3927,254
3928,257
3929,255
3930,258
3931,256
3932,259
3933,257
3934,260
3935,258
3936,248
3937,246
3938,249
3939,247
3940,250
3941,248
3942,251
3943,249
3944,252
3945,250
3946,258
3947,256
3948,259
3949,257
3950,260
3951,258
3952,261
3953,259
3954,248
3955,246
3956,249
3957,247
3958,250
3959,248
3960,251
3961,249
3962,252
3963,250
3964,253
3965,251
3966,259
3967,257
3968,260
3969,258
3970,261
3971,259
3972,275
3973,273
3974,276
3975,274
3976,277
3977,275
3978,278
3979,276
3980,284
3981,282
3982,275
3983,273
3984,276
3985,274
3986,277
3987,275
3988,278
3989,276
3990,284
3991,282
3992,287
3993,285
3994,288
3995,286
3996,289
3997,287
3998,290
3999,288
4000,296
4001,294
4002,287
4003,285
4004,288
4005,286
4006,289
4007,287
4008,290
4009,288
4010,296
4011,294
4012,287
4013,285
4014,288
4015,286
4016,289
4017,287
4018,290
4019,288
4020,296
4021,294
4022,202
4023,200
4024,203
4025,201
4026,204
4027,202
4028,205
4029,203
4030,206
4031,204
4032,207
4033,205
4034,213
4035,211
4036,214
4037,212
4038,215
4039,213
4040,216
4041,214
4042,217
4043,215
4044,269
4045,267
4046,270
4047,268
4048,271
4049,269
4050,272
4051,270
4052,273
4053,271
4054,280
4055,278
4056,281
4057,279
4058,282
4059,280
4060,283
4061,281
4062,284
4063,282
4064,269
4065,267
4066,270
4067,268
4068,271
4069,269
4070,272
4071,270
4072,273
4073,271
4074,280
4075,278
4076,281
4077,279
4078,282
4079,280
4080,283
4081,281
4082,284
4083,282
4084,269
4085,267
4086,270
4087,268
4088,271
4089,269
4090,272
4091,270
4092,273
4093,271
4094,280
4095,278
4096,281
4097,279
4098,282
4099,280
4100,283
4101,281
4102,284
4103,282
4104,269
4105,267
4106,270
4107,268
4108,271
4109,269
4110,272
4111,270
4112,273
4113,271
4114,280
4115,278
4116,281
4117,279
4118,282
4119,280
4120,283
4121,281
4122,284
4123,282
4124,259
4125,257
4126,260
4127,258
4128,261
4129,259
4130,262
4131,260
4132,263
4133,261
4134,264
4135,262
4136,265
4137,263
4138,272
4139,270
4140,273
4141,271
4142,274
4143,272
4144,275
4145,273
4146,287
4147,285
4148,288
4149,286
4150,289
4151,287
4152,290
4153,288
4154,291
4155,289
4156,297
4157,295
4158,298
4159,296
4160,299
4161,297
4162,300
4163,298
4164,301
4165,299
4166,275
4167,273
4168,276
4169,274
4170,277
4171,275
4172,278
4173,276
4174,279
4175,277
4176,285
4177,283
4178,286
4179,284
4180,287
4181,285
4182,288
4183,286
4184,289
4185,287
4186,285
4187,283
4188,286
4189,284
4190,303
4191,301
4192,304
4193,302
4194,305
4195,303
4196,306
4197,304
4198,307
4199,305
4200,308
4201,306
4202,309
4203,307
4204,303
4205,301
4206,304
4207,302
4208,305
4209,303
4210,306
4211,304
4212,307
4213,305
4214,308
4215,306
4216,309
4217,307
4218,303
4219,301
4220,304
4221,302
4222,305
4223,303
4224,306
4225,304
4226,307
4227,305
4228,308
4229,306
4230,309
4231,307
4232,274
4233,272
4234,275
4235,273
4236,276
4237,274
4238,277
4239,275
4240,278
4241,276
4242,279
4243,277
4244,274
4245,272
4246,275
4247,273
4248,276
4249,274
4250,277
4251,275
4252,278
4253,276
4254,274
4255,272
4256,275
4257,273
4258,276
4259,274
4260,277
4261,275
4262,278
4263,276
4264,274
4265,272
4266,275
4267,273
4268,276
4269,274
4270,277
4271,275
4272,278
4273,276
4274,274
4275,272
4276,275
4277,273
4278,276
4279,274
4280,277
4281,275
4282,278
4283,276
4284,291
4285,289
4286,292
4287,290
4288,293
4289,291
4290,294
4291,292
4292,295
4293,293
4294,291
4295,289
4296,292
4297,290
4298,293
4299,291
4300,294
4301,292
4302,295
4303,293
4304,259
4305,257
4306,260
4307,258
4308,261
4309,259
4310,262
4311,260
4312,263
4313,261
4314,264
4315,262
4316,259
4317,257
4318,260
4319,258
4320,261
4321,259
4322,262
4323,260
4324,263
4325,261
4326,264
4327,262
4328,220
4329,218
4330,221
4331,219
4332,222
4333,220
4334,223
4335,221
4336,224
4337,222
4338,225
4339,223
4340,220
4341,218
4342,221
4343,219
4344,222
4345,220
4346,223
4347,221
4348,224
4349,222
4350,225
4351,223
4352,221
4353,219
4354,222
4355,220
4356,223
4357,221
4358,224
4359,222
4360,225
4361,223
4362,226
4363,224
4364,222
4365,220
4366,223
4367,221
4368,224
4369,222
4370,225
4371,223
4372,226
4373,224
4374,222
4375,220
4376,223
4377,221
4378,224
4379,222
4380,225
4381,223
4382,226
4383,224
4384,253
4385,251
4386,254
4387,252
4388,255
4389,253
4390,256
4391,254
4392,257
4393,255
4394,253
4395,251
4396,254
4397,252
4398,255
4399,253
4400,256
4401,254
4402,257
4403,255
4404,253
4405,251
4406,254
4407,252
4408,255
4409,253
4410,256
4411,254
4412,257
4413,255
4414,253
4415,251
4416,254
4417,252
4418,255
4419,253
4420,256
4421,254
4422,257
4423,255
4424,253
4425,251
4426,254
4427,252
4428,255
4429,253
4430,256
4431,254
4432,257
4433,255
4434,207
4435,205
4436,208
4437,206
4438,209
4439,207
4440,210
4441,208
4442,211
4443,209
4444,259
4445,257
4446,260
4447,258
4448,261
4449,259
4450,262
4451,260
4452,263
4453,261
4454,264
4455,262
4456,266
4457,264
4458,267
4459,265
4460,268
4461,266
4462,269
4463,267
4464,270
4465,268
4466,265
4467,263
4468,266
4469,264
4470,267
4471,265
4472,268
4473,266
4474,269
4475,267
4476,274
4477,272
4478,275
4479,273
4480,276
4481,274
4482,277
4483,275
4484,278
4485,276
4486,252
4487,250
4488,253
4489,251
4490,254
4491,252
4492,255
4493,253
4494,256
4495,254
4496,279
4497,277
4498,280
4499,278
4500,281
4501,279
4502,282
4503,280
4504,283
4505,281
4506,259
4507,257
4508,260
4509,258
4510,261
4511,259
4512,262
4513,260
4514,263
4515,261
4516,264
4517,262
4518,259
4519,257
4520,260
4521,258
4522,261
4523,259
4524,262
4525,260
4526,263
4527,261
4528,264
4529,262
4530,251
4531,249
4532,252
4533,250
4534,253
4535,251
4536,254
4537,252
4538,255
4539,253
4540,256
4541,254
4542,251
4543,249
4544,252
4545,250
4546,253
4547,251
4548,254
4549,252
4550,255
4551,253
4552,251
4553,249
4554,252
4555,250
4556,253
4557,251
4558,254
4559,252
4560,255
4561,253
4562,274
4563,272
4564,275
4565,273
4566,276
4567,274
4568,277
4569,275
4570,278
4571,276
4572,251
4573,249
4574,252
4575,250
4576,253
4577,251
4578,254
4579,252
4580,255
4581,253
4582,253
4583,251
4584,254
4585,252
4586,255
4587,253
4588,256
4589,254
4590,257
4591,255
4592,254
4593,252
4594,255
4595,253
4596,256
4597,254
4598,257
4599,255
4600,258
4601,256
4602,279
4603,277
4604,280
4605,278
4606,281
4607,279
4608,282
4609,280
4610,283
4611,281
4612,279
4613,277
4614,280
4615,278
4616,281
4617,279
4618,282
4619,280
4620,283
4621,281
4622,291
4623,289
4624,292
4625,290
4626,293
4627,291
4628,294
4629,292
4630,295
4631,293
4632,291
4633,289
4634,292
4635,290
4636,293
4637,291
4638,294
4639,292
4640,295
4641,293
4642,291
4643,289
4644,292
4645,290
4646,293
4647,291
4648,294
4649,292
4650,295
4651,293
4652,208
4653,206
4654,209
4655,207
4656,210
4657,208
4658,211
4659,209
4660,212
4661,210
4662,274
4663,272
4664,275
4665,273
4666,276
4667,274
4668,277
4669,275
4670,278
4671,276
4672,279
4673,277
4674,274
4675,272
4676,275
4677,273
4678,276
4679,274
4680,277
4681,275
4682,278
4683,276
4684,279
4685,277
4686,274
4687,272
4688,275
4689,273
4690,276
4691,274
4692,277
4693,275
4694,278
4695,276
4696,279
4697,277
4698,274
4699,272
4700,275
4701,273
4702,276
4703,274
4704,277
4705,275
4706,278
4707,276
4708,279
4709,277
4710,266
4711,264
4712,267
4713,265
4714,268
4715,266
4716,269
4717,267
4718,270
4719,268
4720,271
4721,269
4722,292
4723,290
4724,293
4725,291
4726,294
4727,292
4728,295
4729,293
4730,296
4731,294
4732,280
4733,278
4734,281
4735,279
4736,282
4737,280
4738,283
4739,281
4740,284
4741,282
4742,298
4743,296
4744,299
4745,297
4746,300
4747,298
4748,301
4749,299
4750,302
4751,300
4752,298
4753,296
4754,299
4755,297
4756,300
4757,298
4758,301
4759,299
4760,302
4761,300
4762,298
4763,296
4764,299
4765,297
4766,300
4767,298
4768,301
4769,299
4770,302
4771,300
4772,180
4773,186
4774,192
4775,198
4776,204
4777,208
4778,180
4779,186
4780,193
4781,199
4782,205
4783,211
4784,217
4785,223
4786,229
4787,235
4788,239
4789,256
4790,262
4791,266
4792,272
4793,278
4794,284
4795,289
4796,214
4797,220
4798,226
4799,232
4800,238
4801,244
4802,246
4803,194
4804,245
4805,251
4806,257
4807,263
4808,266
4809,244
4810,250
4811,245
4812,251
4813,190
4814,196
4815,202
4816,208
4817,214
4818,220
4819,226
4820,232
4821,238
4822,244
4823,250
4824,256
4825,260
4826,196
4827,202
4828,208
4829,214
4830,220
4831,226
4832,232
4833,239
4834,250
4835,256
4836,262
4837,268
4838,274
4839,278
4840,218
4841,216
4842,214
4843,212
4844,219
4845,216
4846,214
4847,220
4848,216
4849,214
4850,221
4851,216
4852,214
4853,222
4854,216
4855,214
4856,223
4857,216
4858,214
4859,224
4860,216
4861,214
4862,225
4863,216
4864,214
4865,226
4866,216
4867,214
4868,256
4869,254
4870,252
4871,250
4872,257
4873,254
4874,252
4875,258
4876,254
4877,252
4878,259
4879,254
4880,252
4881,260
4882,254
4883,252
4884,261
4885,254
4886,252
4887,261
4888,254
4889,252
4890,262
4891,254
4892,252
4893,263
4894,254
4895,252
4896,265
4897,254
4898,252
4899,266
4900,204
4901,202
4902,198
4903,280
4904,274
4905,272
4906,270
4907,281
4908,274
4909,272
4910,282
4911,274
4912,272
4913,283
4914,274
4915,272
4916,284
4917,274
4918,272
4919,285
4920,274
4921,272
4922,286
4923,274
4924,272
4925,267
4926,247
4927,245
4928,243
4929,268
4930,247
4931,245
4932,269
4933,247
4934,245
4935,270
4936,247
4937,245
4938,271
4939,247
4940,245
4941,272
4942,247
4943,245
4944,273
4945,247
4946,245
4947,274
4948,247
4949,245
4950,275
4951,247
4952,245
4953,276
4954,247
4955,245
4956,277
4957,247
4958,245
4959,278
4960,247
4961,245
4962,279
4963,247
4964,245
4965,287
4966,286
4967,284
4968,282
4969,288
4970,286
4971,284
4972,289
4973,286
4974,284
4975,290
4976,286
4977,284
4978,291
4979,286
4980,284
4981,292
4982,286
4983,284
4984,293
4985,286
4986,284
4987,294
4988,286
4989,284
4990,295
4991,286
4992,284
4993,203
4994,201
4995,199
4996,197
4997,204
4998,201
4999,199
5000,205
5001,201
5002,199
5003,206
5004,201
5005,199
5006,207
5007,201
5008,199
5009,249
5010,247
5011,245
5012,243
5013,250
5014,247
5015,245
5016,251
5017,247
5018,245
5019,252
5020,247
5021,245
5022,253
5023,247
5024,245
5025,254
5026,247
5027,245
5028,255
5029,247
5030,245
5031,256
5032,247
5033,245
5034,257
5035,247
5036,245
5037,258
5038,247
5039,245
5040,259
5041,247
5042,245
5043,260
5044,247
5045,245
5046,293
5047,286
5048,284
5049,270
5050,294
5051,286
5052,284
5053,295
5054,274
5055,272
5056,296
5057,274
5058,272
5059,299
5060,297
5061,295
5062,293
5063,300
5064,297
5065,295
5066,301
5067,297
5068,295
5069,302
5070,297
5071,295
5072,303
5073,297
5074,295
5075,304
5076,297
5077,295
5078,290
5079,258
5080,256
5081,254
5082,291
5083,258
5084,256
5085,292
5086,258
5087,256
5088,261
5089,259
5090,257
5091,255
5092,262
5093,259
5094,257
5095,263
5096,260
5097,258
5098,270
5099,268
5100,266
5101,264
5102,271
5103,268
5104,266
5105,272
5106,268
5107,266
5108,273
5109,268
5110,266
5111,274
5112,268
5113,266
5114,275
5115,268
5116,266
5117,276
5118,268
5119,266
5120,277
5121,268
5122,266
5123,278
5124,268
5125,266
5126,279
5127,268
5128,266
5129,280
5130,268
5131,266
5132,281
5133,268
5134,266
5135,282
5136,268
5137,266
5138,283
5139,268
5140,266
5141,284
5142,268
5143,266
5144,285
5145,268
5146,266
5147,286
5148,268
5149,266
5150,287
5151,268
5152,266
5153,288
5154,268
5155,266
5156,289
5157,268
5158,266
5159,271
5160,307
5161,269
5162,267
5163,290
5164,283
5165,281
5166,296
5167,284
5168,282
5169,271
5170,269
5171,267
5172,291
5173,283
5174,281
5175,293
5176,284
5177,282
5178,271
5179,269
5180,267
5181,292
5182,284
5183,282
5184,293
5185,285
5186,283
5187,271
5188,269
5189,267
5190,292
5191,284
5192,282
5193,293
5194,285
5195,283
5196,271
5197,269
5198,267
5199,291
5200,282
5201,280
5202,293
5203,283
5204,281
5205,307
5206,300
5207,298
5208,309
5209,301
5210,299
5211,307
5212,301
5213,299
5214,309
5215,302
5216,300
5217,282
5218,268
5219,266
5220,283
5221,269
5222,267
5223,282
5224,268
5225,266
5226,283
5227,269
5228,267
5229,282
5230,229
5231,227
5232,283
5233,230
5234,228
5235,281
5236,229
5237,227
5238,283
5239,230
5240,228
5241,279
5242,229
5243,227
5244,282
5245,230
5246,228
5247,280
5248,230
5249,228
5250,281
5251,231
5252,229
5253,219
5254,217
5255,215
5256,278
5257,230
5258,228
5259,281
5260,231
5261,229
5262,250
5263,248
5264,246
5265,283
5266,261
5267,259
5268,250
5269,248
5270,246
5271,251
5272,248
5273,246
5274,250
5275,248
5276,246
5277,204
5278,202
5279,200
5280,275
5281,215
5282,213
5283,279
5284,216
5285,214
5286,281
5287,268
5288,266
5289,283
5290,269
5291,267
5292,262
5293,260
5294,258
5295,262
5296,260
5297,258
5298,286
5299,273
5300,271
5301,291
5302,274
5303,272
5304,271
5305,269
5306,267
5307,290
5308,282
5309,280
5310,292
5311,283
5312,281
5313,291
5314,260
5315,258
5316,280
5317,268
5318,266
5319,282
5320,269
5321,267
5322,279
5323,268
5324,266
5325,281
5326,269
5327,267
5328,276
5329,259
5330,257
5331,286
5332,260
5333,258
5334,285
5335,259
5336,257
5337,287
5338,260
5339,258
5340,286
5341,259
5342,257
5343,290
5344,260
5345,258
5346,271
5347,269
5348,267
5349,290
5350,282
5351,280
5352,291
5353,283
5354,281
5355,289
5356,259
5357,257
5358,291
5359,260
5360,258
5361,250
5362,248
5363,246
5364,204
5365,202
5366,200
5367,274
5368,216
5369,214
5370,271
5371,269
5372,267
5373,295
5374,283
5375,281
5376,298
5377,284
5378,282
5379,273
5380,269
5381,267
5382,297
5383,283
5384,281
5385,299
5386,284
5387,282
5388,273
5389,269
5390,267
5391,298
5392,283
5393,281
5394,301
5395,284
5396,282
5397,272
5398,269
5399,267
5400,300
5401,284
5402,282
5403,303
5404,285
5405,283
5406,263
5407,259
5408,257
5409,289
5410,287
5411,285
5412,308
5413,301
5414,299
5415,309
5416,302
5417,300
5418,278
5419,275
5420,273
5421,308
5422,290
5423,288
5424,309
5425,291
5426,289
5427,311
5428,292
5429,290
5430,312
5431,293
5432,291
5433,309
5434,306
5435,304
5436,311
5437,307
5438,305
5439,313
5440,308
5441,306
5442,315
5443,309
5444,307
5445,308
5446,306
5447,304
5448,309
5449,307
5450,305
5451,311
5452,308
5453,306
5454,312
5455,309
5456,307
5457,308
5458,306
5459,304
5460,309
5461,307
5462,305
5463,311
5464,308
5465,306
5466,312
5467,309
5468,307
5469,272
5470,270
5471,268
5472,273
5473,271
5474,269
5475,274
5476,272
5477,270
5478,275
5479,273
5480,271
5481,277
5482,274
5483,272
5484,278
5485,275
5486,273
5487,280
5488,276
5489,274
5490,281
5491,277
5492,275
5493,283
5494,278
5495,276
5496,284
5497,279
5498,277
5499,286
5500,280
5501,278
5502,287
5503,281
5504,279
5505,289
5506,282
5507,280
5508,273
5509,271
5510,269
5511,274
5512,272
5513,270
5514,275
5515,273
5516,271
5517,276
5518,274
5519,272
5520,278
5521,275
5522,273
5523,280
5524,276
5525,274
5526,281
5527,277
5528,275
5529,282
5530,278
5531,276
5532,284
5533,279
5534,277
5535,286
5536,280
5537,278
5538,288
5539,281
5540,279
5541,289
5542,282
5543,280
5544,273
5545,271
5546,269
5547,275
5548,273
5549,271
5550,276
5551,274
5552,272
5553,277
5554,275
5555,273
5556,278
5557,276
5558,274
5559,280
5560,277
5561,275
5562,283
5563,278
5564,276
5565,284
5566,279
5567,277
5568,285
5569,280
5570,278
5571,288
5572,281
5573,279
5574,290
5575,282
5576,280
5577,291
5578,283
5579,281
5580,273
5581,271
5582,269
5583,275
5584,273
5585,271
5586,276
5587,274
5588,272
5589,277
5590,275
5591,273
5592,278
5593,276
5594,274
5595,279
5596,277
5597,275
5598,281
5599,278
5600,276
5601,283
5602,279
5603,277
5604,284
5605,280
5606,278
5607,285
5608,281
5609,279
5610,287
5611,282
5612,280
5613,291
5614,283
5615,281
5616,272
5617,270
5618,268
5619,273
5620,271
5621,269
5622,274
5623,272
5624,270
5625,276
5626,273
5627,271
5628,277
5629,274
5630,272
5631,278
5632,275
5633,273
5634,280
5635,276
5636,274
5637,282
5638,277
5639,275
5640,283
5641,278
5642,276
5643,284
5644,279
5645,277
5646,286
5647,280
5648,278
5649,289
5650,281
5651,279
5652,289
5653,287
5654,286
5655,291
5656,289
5657,287
5658,293
5659,290
5660,288
5661,295
5662,291
5663,289
5664,297
5665,292
5666,290
5667,300
5668,293
5669,291
5670,301
5671,294
5672,292
5673,302
5674,295
5675,293
5676,303
5677,296
5678,294
5679,303
5680,297
5681,295
5682,304
5683,298
5684,296
5685,306
5686,299
5687,297
5688,289
5689,287
5690,286
5691,292
5692,290
5693,288
5694,293
5695,291
5696,289
5697,294
5698,292
5699,290
5700,295
5701,293
5702,291
5703,297
5704,294
5705,292
5706,299
5707,295
5708,293
5709,301
5710,296
5711,294
5712,302
5713,297
5714,295
5715,303
5716,298
5717,296
5718,304
5719,299
5720,297
5721,305
5722,300
5723,298
5724,260
5725,255
5726,253
5727,262
5728,256
5729,254
5730,264
5731,257
5732,255
5733,266
5734,258
5735,256
5736,268
5737,259
5738,257
5739,270
5740,260
5741,258
5742,272
5743,261
5744,259
5745,273
5746,262
5747,260
5748,275
5749,263
5750,261
5751,277
5752,264
5753,262
5754,279
5755,265
5756,263
5757,280
5758,266
5759,264
5760,281
5761,267
5762,265
5763,257
5764,255
5765,253
5766,259
5767,256
5768,254
5769,262
5770,257
5771,255
5772,264
5773,258
5774,256
5775,266
5776,259
5777,257
5778,268
5779,260
5780,258
5781,270
5782,261
5783,259
5784,272
5785,262
5786,260
5787,274
5788,263
5789,261
5790,277
5791,264
5792,262
5793,278
5794,265
5795,263
5796,280
5797,266
5798,264
5799,281
5800,267
5801,265
5802,219
5803,217
5804,215
5805,258
5806,218
5807,216
5808,261
5809,219
5810,217
5811,265
5812,220
5813,218
5814,267
5815,221
5816,219
5817,269
5818,222
5819,220
5820,271
5821,223
5822,221
5823,273
5824,224
5825,222
5826,276
5827,225
5828,223
5829,278
5830,226
5831,224
5832,280
5833,227
5834,225
5835,281
5836,228
5837,226
5838,220
5839,217
5840,215
5841,222
5842,218
5843,216
5844,224
5845,219
5846,217
5847,261
5848,220
5849,218
5850,263
5851,221
5852,219
5853,267
5854,222
5855,220
5856,269
5857,223
5858,221
5859,271
5860,224
5861,222
5862,273
5863,225
5864,223
5865,275
5866,226
5867,224
5868,278
5869,227
5870,225
5871,280
5872,228
5873,226
5874,220
5875,217
5876,215
5877,222
5878,218
5879,216
5880,224
5881,219
5882,217
5883,226
5884,220
5885,218
5886,228
5887,221
5888,219
5889,263
5890,222
5891,220
5892,265
5893,223
5894,221
5895,269
5896,224
5897,222
5898,272
5899,225
5900,223
5901,273
5902,226
5903,224
5904,275
5905,227
5906,225
5907,276
5908,228
5909,226
5910,219
5911,217
5912,215
5913,221
5914,218
5915,216
5916,223
5917,219
5918,217
5919,225
5920,220
5921,218
5922,227
5923,221
5924,219
5925,229
5926,222
5927,220
5928,231
5929,223
5930,221
5931,265
5932,224
5933,222
5934,268
5935,225
5936,223
5937,271
5938,226
5939,224
5940,274
5941,227
5942,225
5943,277
5944,228
5945,226
5946,278
5947,229
5948,227
5949,220
5950,218
5951,216
5952,222
5953,219
5954,217
5955,224
5956,220
5957,218
5958,226
5959,221
5960,219
5961,228
5962,222
5963,220
5964,230
5965,223
5966,221
5967,232
5968,224
5969,222
5970,255
5971,225
5972,223
5973,267
5974,226
5975,224
5976,271
5977,227
5978,225
5979,273
5980,228
5981,226
5982,275
5983,229
5984,227
5985,252
5986,249
5987,247
5988,264
5989,250
5990,248
5991,266
5992,251
5993,249
5994,267
5995,252
5996,250
5997,269
5998,253
5999,251
6000,270
6001,254
6002,252
6003,274
6004,255
6005,253
6006,275
6007,256
6008,254
6009,276
6010,257
6011,255
6012,277
6013,258
6014,256
6015,278
6016,259
6017,257
6018,280
6019,260
6020,258
6021,251
6022,249
6023,247
6024,252
6025,250
6026,248
6027,255
6028,251
6029,249
6030,266
6031,252
6032,250
6033,268
6034,253
6035,251
6036,270
6037,254
6038,252
6039,271
6040,255
6041,253
6042,272
6043,256
6044,254
6045,275
6046,257
6047,255
6048,276
6049,258
6050,256
6051,277
6052,259
6053,257
6054,278
6055,260
6056,258
6057,253
6058,249
6059,247
6060,255
6061,250
6062,248
6063,257
6064,251
6065,249
6066,259
6067,252
6068,250
6069,261
6070,253
6071,251
6072,268
6073,254
6074,252
6075,270
6076,255
6077,253
6078,273
6079,256
6080,254
6081,275
6082,257
6083,255
6084,277
6085,258
6086,256
6087,280
6088,259
6089,257
6090,282
6091,260
6092,258
6093,251
6094,249
6095,247
6096,253
6097,250
6098,248
6099,255
6100,251
6101,249
6102,257
6103,252
6104,250
6105,259
6106,253
6107,251
6108,262
6109,254
6110,252
6111,264
6112,255
6113,253
6114,271
6115,256
6116,254
6117,273
6118,257
6119,255
6120,275
6121,258
6122,256
6123,278
6124,259
6125,257
6126,280
6127,260
6128,258
6129,250
6130,248
6131,246
6132,251
6133,249
6134,247
6135,252
6136,250
6137,248
6138,254
6139,251
6140,249
6141,256
6142,252
6143,250
6144,258
6145,253
6146,251
6147,261
6148,254
6149,252
6150,263
6151,255
6152,253
6153,265
6154,256
6155,254
6156,268
6157,257
6158,255
6159,273
6160,258
6161,256
6162,276
6163,259
6164,257
6165,278
6166,260
6167,258
6168,205
6169,203
6170,201
6171,220
6172,204
6173,202
6174,222
6175,205
6176,203
6177,224
6178,206
6179,204
6180,226
6181,207
6182,205
6183,253
6184,208
6185,206
6186,255
6187,209
6188,207
6189,258
6190,210
6191,208
6192,260
6193,211
6194,209
6195,263
6196,212
6197,210
6198,269
6199,213
6200,211
6201,273
6202,214
6203,212
6204,258
6205,255
6206,253
6207,261
6208,256
6209,254
6210,262
6211,257
6212,255
6213,264
6214,258
6215,256
6216,266
6217,259
6218,257
6219,268
6220,260
6221,258
6222,270
6223,261
6224,259
6225,272
6226,262
6227,260
6228,273
6229,263
6230,261
6231,275
6232,264
6233,262
6234,277
6235,265
6236,263
6237,279
6238,266
6239,264
6240,280
6241,267
6242,265
6243,264
6244,261
6245,259
6246,266
6247,262
6248,260
6249,267
6250,263
6251,261
6252,268
6253,264
6254,262
6255,273
6256,265
6257,263
6258,274
6259,266
6260,264
6261,275
6262,267
6263,265
6264,276
6265,268
6266,266
6267,277
6268,269
6269,267
6270,279
6271,270
6272,268
6273,280
6274,271
6275,269
6276,281
6277,272
6278,270
6279,286
6280,273
6281,271
6282,263
6283,261
6284,259
6285,272
6286,262
6287,260
6288,273
6289,263
6290,261
6291,274
6292,264
6293,262
6294,275
6295,265
6296,263
6297,276
6298,266
6299,264
6300,277
6301,267
6302,265
6303,278
6304,268
6305,266
6306,280
6307,269
6308,267
6309,283
6310,270
6311,268
6312,284
6313,271
6314,269
6315,285
6316,272
6317,270
6318,272
6319,270
6320,268
6321,273
6322,271
6323,269
6324,274
6325,272
6326,270
6327,275
6328,273
6329,271
6330,276
6331,274
6332,272
6333,277
6334,275
6335,273
6336,278
6337,276
6338,274
6339,279
6340,277
6341,275
6342,283
6343,278
6344,276
6345,284
6346,279
6347,277
6348,285
6349,280
6350,278
6351,288
6352,281
6353,279
6354,250
6355,248
6356,246
6357,252
6358,249
6359,247
6360,254
6361,250
6362,248
6363,256
6364,251
6365,249
6366,259
6367,252
6368,250
6369,281
6370,253
6371,251
6372,283
6373,254
6374,252
6375,284
6376,255
6377,253
6378,286
6379,256
6380,254
6381,287
6382,257
6383,255
6384,288
6385,258
6386,256
6387,289
6388,259
6389,257
6390,277
6391,275
6392,273
6393,278
6394,276
6395,274
6396,279
6397,277
6398,275
6399,281
6400,278
6401,276
6402,283
6403,279
6404,277
6405,284
6406,280
6407,278
6408,293
6409,281
6410,279
6411,297
6412,282
6413,280
6414,299
6415,283
6416,281
6417,301
6418,284
6419,282
6420,302
6421,285
6422,283
6423,258
6424,255
6425,253
6426,260
6427,256
6428,254
6429,262
6430,257
6431,255
6432,264
6433,258
6434,256
6435,267
6436,259
6437,257
6438,269
6439,260
6440,258
6441,270
6442,261
6443,259
6444,271
6445,262
6446,260
6447,272
6448,263
6449,261
6450,274
6451,264
6452,262
6453,277
6454,265
6455,263
6456,278
6457,266
6458,264
6459,279
6460,267
6461,265
6462,259
6463,255
6464,253
6465,261
6466,256
6467,254
6468,263
6469,257
6470,255
6471,265
6472,258
6473,256
6474,267
6475,259
6476,257
6477,269
6478,260
6479,258
6480,270
6481,261
6482,259
6483,271
6484,262
6485,260
6486,272
6487,263
6488,261
6489,273
6490,264
6491,262
6492,274
6493,265
6494,263
6495,275
6496,266
6497,264
6498,278
6499,267
6500,265
6501,260
6502,248
6503,246
6504,262
6505,249
6506,247
6507,265
6508,250
6509,248
6510,267
6511,251
6512,249
6513,268
6514,252
6515,250
6516,270
6517,253
6518,251
6519,271
6520,254
6521,252
6522,272
6523,255
6524,253
6525,273
6526,256
6527,254
6528,274
6529,257
6530,255
6531,275
6532,258
6533,256
6534,251
6535,248
6536,246
6537,252
6538,249
6539,247
6540,261
6541,250
6542,248
6543,264
6544,251
6545,249
6546,267
6547,252
6548,250
6549,269
6550,253
6551,251
6552,270
6553,254
6554,252
6555,271
6556,255
6557,253
6558,272
6559,256
6560,254
6561,273
6562,257
6563,255
6564,274
6565,258
6566,256
6567,252
6568,248
6569,246
6570,254
6571,249
6572,247
6573,255
6574,250
6575,248
6576,257
6577,251
6578,249
6579,263
6580,252
6581,250
6582,266
6583,253
6584,251
6585,269
6586,254
6587,252
6588,271
6589,255
6590,253
6591,272
6592,256
6593,254
6594,284
6595,257
6596,255
6597,285
6598,258
6599,256
6600,272
6601,270
6602,268
6603,273
6604,271
6605,269
6606,274
6607,272
6608,270
6609,275
6610,273
6611,271
6612,276
6613,274
6614,272
6615,277
6616,275
6617,273
6618,278
6619,276
6620,274
6621,279
6622,277
6623,275
6624,281
6625,278
6626,276
6627,284
6628,279
6629,277
6630,285
6631,280
6632,278
6633,287
6634,281
6635,279
6636,251
6637,248
6638,246
6639,253
6640,249
6641,247
6642,255
6643,250
6644,248
6645,257
6646,251
6647,249
6648,260
6649,252
6650,250
6651,261
6652,253
6653,251
6654,264
6655,254
6656,252
6657,282
6658,255
6659,253
6660,284
6661,256
6662,254
6663,285
6664,257
6665,255
6666,287
6667,258
6668,256
6669,250
6670,248
6671,246
6672,251
6673,249
6674,247
6675,253
6676,250
6677,248
6678,279
6679,251
6680,249
6681,281
6682,252
6683,250
6684,283
6685,253
6686,251
6687,285
6688,254
6689,252
6690,286
6691,255
6692,253
6693,287
6694,256
6695,254
6696,288
6697,257
6698,255
6699,289
6700,258
6701,256
6702,290
6703,259
6704,257
6705,296
6706,260
6707,258
6708,277
6709,275
6710,273
6711,278
6712,276
6713,274
6714,279
6715,277
6716,275
6717,280
6718,278
6719,276
6720,283
6721,279
6722,277
6723,284
6724,280
6725,278
6726,285
6727,281
6728,279
6729,286
6730,282
6731,280
6732,287
6733,283
6734,281
6735,294
6736,284
6737,282
6738,298
6739,285
6740,283
6741,301
6742,286
6743,284
6744,277
6745,275
6746,273
6747,278
6748,276
6749,274
6750,279
6751,277
6752,275
6753,281
6754,278
6755,276
6756,292
6757,279
6758,277
6759,296
6760,280
6761,278
6762,298
6763,281
6764,279
6765,300
6766,282
6767,280
6768,301
6769,283
6770,281
6771,303
6772,284
6773,282
6774,277
6775,275
6776,273
6777,278
6778,276
6779,274
6780,290
6781,277
6782,275
6783,293
6784,278
6785,276
6786,295
6787,279
6788,277
6789,297
6790,280
6791,278
6792,299
6793,281
6794,279
6795,302
6796,282
6797,280
6798,304
6799,283
6800,281
6801,306
6802,284
6803,282
6804,289
6805,287
6806,286
6807,292
6808,290
6809,288
6810,293
6811,291
6812,289
6813,294
6814,292
6815,290
6816,295
6817,293
6818,291
6819,297
6820,294
6821,292
6822,299
6823,295
6824,293
6825,302
6826,296
6827,294
6828,303
6829,297
6830,295
6831,305
6832,298
6833,296
6834,289
6835,287
6836,286
6837,292
6838,290
6839,288
6840,293
6841,291
6842,289
6843,294
6844,292
6845,290
6846,296
6847,293
6848,291
6849,298
6850,294
6851,292
6852,300
6853,295
6854,293
6855,302
6856,296
6857,294
6858,303
6859,297
6860,295
6861,304
6862,298
6863,296
6864,289
6865,287
6866,286
6867,290
6868,289
6869,287
6870,292
6871,290
6872,288
6873,293
6874,291
6875,289
6876,295
6877,292
6878,290
6879,296
6880,293
6881,291
6882,298
6883,294
6884,292
6885,301
6886,295
6887,293
6888,302
6889,296
6890,294
6891,303
6892,297
6893,295
6894,205
6895,203
6896,201
6897,206
6898,204
6899,202
6900,208
6901,205
6902,203
6903,251
6904,206
6905,204
6906,253
6907,207
6908,205
6909,255
6910,208
6911,206
6912,257
6913,209
6914,207
6915,260
6916,210
6917,208
6918,262
6919,211
6920,209
6921,264
6922,212
6923,210
6924,266
6925,213
6926,211
6927,268
6928,214
6929,212
6930,272
6931,215
6932,213
6933,272
6934,270
6935,268
6936,274
6937,271
6938,269
6939,275
6940,272
6941,270
6942,276
6943,273
6944,271
6945,279
6946,274
6947,272
6948,280
6949,275
6950,273
6951,282
6952,276
6953,274
6954,283
6955,277
6956,275
6957,285
6958,278
6959,276
6960,285
6961,279
6962,277
6963,288
6964,280
6965,278
6966,289
6967,281
6968,279
6969,294
6970,282
6971,280
6972,272
6973,270
6974,268
6975,274
6976,271
6977,269
6978,275
6979,272
6980,270
6981,276
6982,273
6983,271
6984,281
6985,274
6986,272
6987,282
6988,275
6989,273
6990,284
6991,276
6992,274
6993,285
6994,277
6995,275
6996,287
6997,278
6998,276
6999,288
7000,279
7001,277
7002,293
7003,280
7004,278
7005,294
7006,281
7007,279
7008,295
7009,282
7010,280
7011,273
7012,270
7013,268
7014,274
7015,271
7016,269
7017,275
7018,272
7019,270
7020,276
7021,273
7022,271
7023,283
7024,274
7025,272
7026,284
7027,275
7028,273
7029,286
7030,276
7031,274
7032,287
7033,277
7034,275
7035,292
7036,278
7037,276
7038,293
7039,279
7040,277
7041,294
7042,280
7043,278
7044,296
7045,281
7046,279
7047,297
7048,282
7049,280
7050,272
7051,270
7052,268
7053,274
7054,272
7055,270
7056,275
7057,273
7058,271
7059,276
7060,274
7061,272
7062,285
7063,275
7064,273
7065,286
7066,276
7067,274
7068,291
7069,277
7070,275
7071,292
7072,278
7073,276
7074,293
7075,279
7076,277
7077,295
7078,280
7079,278
7080,296
7081,281
7082,279
7083,297
7084,282
7085,280
7086,298
7087,283
7088,281
7089,264
7090,261
7091,259
7092,273
7093,263
7094,261
7095,274
7096,264
7097,262
7098,275
7099,265
7100,263
7101,290
7102,266
7103,264
7104,291
7105,267
7106,265
7107,292
7108,268
7109,266
7110,294
7111,269
7112,267
7113,295
7114,270
7115,268
7116,296
7117,271
7118,269
7119,297
7120,272
7121,270
7122,299
7123,273
7124,271
7125,301
7126,274
7127,272
7128,305
7129,275
7130,273
7131,307
7132,276
7133,274
7134,290
7135,288
7136,286
7137,291
7138,290
7139,288
7140,293
7141,291
7142,289
7143,294
7144,292
7145,290
7146,295
7147,293
7148,291
7149,296
7150,294
7151,292
7152,298
7153,295
7154,293
7155,300
7156,296
7157,294
7158,304
7159,297
7160,295
7161,305
7162,298
7163,296
7164,306
7165,299
7166,297
7167,307
7168,300
7169,298
7170,279
7171,277
7172,275
7173,290
7174,279
7175,277
7176,291
7177,280
7178,278
7179,292
7180,281
7181,279
7182,294
7183,282
7184,280
7185,295
7186,283
7187,281
7188,302
7189,284
7190,282
7191,303
7192,285
7193,283
7194,304
7195,286
7196,284
7197,305
7198,287
7199,285
7200,306
7201,288
7202,286
7203,306
7204,289
7205,287
7206,300
7207,298
7208,296
7209,301
7210,299
7211,297
7212,302
7213,300
7214,298
7215,304
7216,301
7217,299
7218,305
7219,302
7220,300
7221,306
7222,303
7223,301
7224,306
7225,304
7226,302
7227,308
7228,305
7229,303
7230,300
7231,298
7232,296
7233,301
7234,299
7235,297
7236,302
7237,300
7238,298
7239,303
7240,301
7241,299
7242,304
7243,302
7244,300
7245,305
7246,303
7247,301
7248,306
7249,304
7250,302
7251,307
7252,305
7253,303
7254,300
7255,298
7256,296
7257,301
7258,299
7259,297
7260,302
7261,300
7262,298
7263,303
7264,301
7265,299
7266,304
7267,302
7268,300
7269,305
7270,303
7271,301
7272,306
7273,304
7274,302
7275,307
7276,305
7277,303
7278,259
7279,259
7280,251
7281,242
7282,249
7283,100
7284,104
7285,108
7286,112
7287,116
7288,120
7289,1
7290,5
7291,9
7292,13
7293,17
7294,21
7295,26
7296,30
7297,34
7298,38
7299,42
7300,46
7301,50
7302,54
7303,57
7304,61
7305,65
7306,69
7307,73
7308,77
7309,81
7310,85
7311,89
7312,93
7313,96
7314,62
7315,66
7316,70
7317,74
7318,78
7319,82
7320,86
7321,90
7322,94
7323,96
7324,32
7325,36
7326,40
7327,44
7328,48
7329,52
7330,56
7331,58
7332,1
7333,5
7334,9
7335,13
7336,17
7337,21
7338,25
7339,28
7340,528
7341,1
7342,1
7343,11
7344,21
7345,31
7346,41
7347,51
7348,61
7349,66
7350,88
7351,100
7352,78
7353,25
7354,11
7355,1
